relatorio3/simulation/qsim/relatorio3.msim.vcd
$comment
	File created using the following command:
		vcd file relatorio3.msim.vcd -direction
$end
$date
	Fri Oct 07 11:23:52 2022
$end
$version
	ModelSim Version 10.1d
$end
$timescale
	1ps
$end
$scope module relatorio3_vlg_vec_tst $end
$var reg 1 ! a $end
$var reg 1 " b $end
$var reg 1 # i0 $end
$var reg 1 $ i2 $end
$var reg 1 % i3 $end
$var reg 1 & ia $end
$var reg 1 ' s $end
$var reg 1 ( s0 $end
$var reg 1 ) s1 $end
$var wire 1 * x1 $end
$var wire 1 + x2 $end
$var wire 1 , x3 $end
$var wire 1 - sampler $end
$scope module i1 $end
$var wire 1 . gnd $end
$var wire 1 / vcc $end
$var wire 1 0 unknown $end
$var tri1 1 1 devclrn $end
$var tri1 1 2 devpor $end
$var tri1 1 3 devoe $end
$var wire 1 4 x1~output_o $end
$var wire 1 5 x2~output_o $end
$var wire 1 6 x3~output_o $end
$var wire 1 7 b~input_o $end
$var wire 1 8 a~input_o $end
$var wire 1 9 s~input_o $end
$var wire 1 : x1~0_combout $end
$var wire 1 ; s0~input_o $end
$var wire 1 < s1~input_o $end
$var wire 1 = i2~input_o $end
$var wire 1 > i0~input_o $end
$var wire 1 ? x3~0_combout $end
$var wire 1 @ i3~input_o $end
$var wire 1 A ia~input_o $end
$var wire 1 B x3~1_combout $end
$upscope $end
$upscope $end
$enddefinitions $end
#0
$dumpvars
x!
x"
1#
0$
0%
1&
x'
1(
0)
x*
x+
1,
x-
0.
1/
x0
11
12
13
x4
x5
16
x7
x8
x9
x:
1;
0<
0=
1>
0?
0@
1A
1B
$end
#5000
0&
1%
0A
1@
0-
0B
06
0,
#10000
1&
1A
1-
1B
16
1,
#15000
0#
0>
0-
#20000
1$
0%
1=
0@
1-
#25000
0&
1#
0A
1>
0-
0B
06
0,
#30000
0$
1&
0#
0=
1A
0>
1-
1B
16
1,
#35000
1%
1$
1#
1@
1=
1>
0-
#40000
0&
0$
0#
0A
0=
0>
1-
0B
06
0,
#45000
0%
1&
1#
0@
1A
1>
0-
1B
16
1,
#55000
1%
0#
1@
0>
1-
#60000
1$
0&
0%
1=
0A
0@
0-
0B
06
0,
#65000
0$
1%
0=
1@
1-
#70000
1#
1&
1$
0%
1>
1A
1=
0@
0-
1B
16
1,
#75000
0#
0&
1%
0>
0A
1@
1-
0B
06
0,
#80000
1)
1#
1<
1>
0-
1?
1B
16
1,
#85000
1&
1A
1-
#90000
0$
0#
0&
0=
0>
0A
0-
#95000
1$
1&
1=
1A
1-
#100000
0%
1#
0@
1>
0-
0B
06
0,
#105000
0&
1%
0A
1@
1-
1B
16
1,
#110000
0#
0>
0-
#115000
0$
1&
0%
1#
0=
1A
0@
1>
1-
0B
06
0,
#120000
1%
0#
1@
0>
0-
1B
16
1,
#125000
0&
0%
1#
0A
0@
1>
1-
0B
06
0,
#135000
1&
1%
1A
1@
0-
1B
16
1,
#140000
1$
0%
1=
0@
1-
0B
06
0,
#145000
0&
1%
0A
1@
0-
1B
16
1,
#150000
0#
0$
0%
0>
0=
0@
1-
0B
06
0,
#155000
1$
1=
0-
#160000
0(
0)
1#
0$
0;
0<
1>
0=
1-
1B
16
1,
#165000
1&
1%
1$
1A
1@
1=
0-
#170000
0%
0@
1-
#175000
0&
0$
0A
0=
0-
#180000
1%
1@
1-
#185000
1&
1$
0%
1A
1=
0@
0-
#190000
0#
0&
0$
0>
0A
0=
1-
0?
0B
06
0,
#195000
1%
1#
1&
1$
1@
1>
1A
1=
0-
1?
1B
16
1,
#200000
0%
0&
0$
0@
0A
0=
1-
#205000
1%
1@
0-
#210000
0#
1&
1$
0>
1A
1=
1-
0?
0B
06
0,
#225000
0%
0@
0-
#230000
1#
0$
1%
1>
0=
1@
1-
1?
1B
16
1,
#235000
0&
0#
0%
0A
0>
0@
0-
0?
0B
06
0,
#240000
1(
1$
1#
1;
1=
1>
1-
#245000
1&
1%
0$
0#
1A
1@
0=
0>
0-
1B
16
1,
#250000
0%
1#
0@
1>
1-
#255000
0&
1%
0#
0A
1@
0>
0-
0B
06
0,
#260000
1&
0%
1A
0@
1-
1B
16
1,
#265000
1#
0&
1>
0A
0-
0B
06
0,
#270000
1$
1%
1&
1=
1@
1A
1-
1B
16
1,
#275000
0$
0=
0-
#280000
0%
1$
0@
1=
1-
#285000
0#
0$
0>
0=
0-
#290000
1#
1$
1>
1=
1-
#295000
1%
1@
0-
#300000
0#
0$
0>
0=
1-
#305000
0&
0%
0A
0@
0-
0B
06
0,
#310000
1#
1$
1&
1>
1=
1A
1-
1B
16
1,
#320000
0(
0&
0;
0A
0-
1?
0B
06
0,
1B
16
1,
#325000
0$
1&
0=
1A
1-
#330000
0#
0>
0-
0?
0B
06
0,
#335000
1%
1$
1@
1=
1-
#340000
0&
1#
0%
0$
0A
1>
0@
0=
0-
1?
1B
16
1,
#345000
1$
1=
1-
#350000
1&
0#
0$
1A
0>
0=
0-
0?
0B
06
0,
#355000
1#
1>
1-
1?
1B
16
1,
#360000
0&
1$
0A
1=
0-
#365000
0#
0>
1-
0?
0B
06
0,
#370000
1%
1&
1#
1@
1A
1>
0-
1?
1B
16
1,
#375000
0%
0&
0#
0@
0A
0>
1-
0?
0B
06
0,
#380000
1%
1&
1#
1@
1A
1>
0-
1?
1B
16
1,
#385000
0$
0#
0=
0>
1-
0?
0B
06
0,
#390000
0%
0@
0-
#395000
0&
1$
1#
0A
1=
1>
1-
1?
1B
16
1,
#400000
1)
1(
0#
1<
1;
0>
0-
0B
06
0,
#410000
1%
0$
1@
0=
1-
1B
16
1,
#415000
1&
1#
0%
1$
1A
1>
0@
1=
0-
0B
06
0,
#420000
0&
0#
0$
0A
0>
0=
1-
#425000
1%
1$
1@
1=
0-
1B
16
1,
#430000
0%
0$
0@
0=
1-
0B
06
0,
#440000
1&
1$
1A
1=
0-
#445000
1%
0$
1@
0=
1-
1B
16
1,
#450000
0&
1$
0A
1=
0-
#455000
1#
1&
0$
1>
1A
0=
1-
#460000
0%
0@
0-
0B
06
0,
#465000
0&
1$
1%
0A
1=
1@
1-
1B
16
1,
#470000
0#
0$
0%
0>
0=
0@
0-
0B
06
0,
#475000
1&
1#
1%
1A
1>
1@
1-
1B
16
1,
#480000
0)
1$
0%
0<
1=
0@
0-
0?
0B
06
0,
1B
16
1,
#490000
0#
1%
0>
1@
1-
#495000
0&
1#
0A
1>
0-
0B
06
0,
#500000
0$
0#
0=
0>
1-
#505000
1&
1#
1A
1>
0-
1B
16
1,
#510000
0&
0A
1-
0B
06
0,
#515000
1$
0#
1&
1=
0>
1A
0-
1B
16
1,
#520000
0%
0&
0@
0A
1-
0B
06
0,
#525000
1%
1@
0-
#530000
1#
1>
1-
#535000
0$
1&
0#
0=
1A
0>
0-
1B
16
1,
#540000
0%
1$
0&
1#
0@
1=
0A
1>
1-
0B
06
0,
#545000
0#
0>
0-
#555000
1%
0$
1&
1@
0=
1A
1-
1B
16
1,
#560000
0(
1$
0&
0;
1=
0A
0-
0B
06
0,
#565000
1#
0%
1&
1>
0@
1A
1-
1?
1B
16
1,
#570000
0#
1%
0>
1@
0-
0?
0B
06
0,
#575000
0$
0&
0=
0A
1-
#580000
0%
1$
0@
1=
0-
#585000
1%
1@
1-
#590000
1&
0$
1A
0=
0-
#595000
1#
1$
1>
1=
1-
1?
1B
16
1,
#600000
0#
0$
0>
0=
0-
0?
0B
06
0,
#605000
1#
1$
1>
1=
1-
1?
1B
16
1,
#610000
0&
0$
0A
0=
0-
#615000
0%
0#
1&
1$
0@
0>
1A
1=
1-
0?
0B
06
0,
#620000
1#
1>
0-
1?
1B
16
1,
#625000
0&
0#
0A
0>
1-
0?
0B
06
0,
#630000
0$
0=
0-
#635000
1&
1$
1A
1=
1-
#640000
1)
1(
1%
0&
0$
1<
1;
1@
0A
0=
0-
1?
1B
16
1,
#645000
0%
1&
0@
1A
1-
0B
06
0,
#650000
1#
1$
0&
1>
1=
0A
0-
#655000
0$
0=
1-
#660000
1$
1=
0-
#670000
0#
1&
0$
0>
1A
0=
1-
#675000
1$
1=
0-
#680000
1#
0&
1>
0A
1-
#690000
0#
1&
0>
1A
0-
#695000
0$
1#
0=
1>
1-
#700000
1%
0&
1$
0#
1@
0A
1=
0>
0-
1B
16
1,
#705000
1#
1>
1-
#710000
1&
1A
0-
#715000
0%
0#
0&
0@
0>
0A
1-
0B
06
0,
#720000
0)
0(
0$
0<
0;
0=
0-
0?
1B
16
1,
0B
06
0,
#725000
1%
1#
1@
1>
1-
1?
1B
16
1,
#730000
0#
0>
0-
0?
0B
06
0,
#735000
1$
0%
1=
0@
1-
#740000
1#
1>
0-
1?
1B
16
1,
#745000
0$
0=
1-
#750000
1&
1%
0#
1$
1A
1@
0>
1=
0-
0?
0B
06
0,
#755000
1#
1>
1-
1?
1B
16
1,
#760000
0%
0@
0-
#765000
0#
0>
1-
0?
0B
06
0,
#770000
1%
1#
1@
1>
0-
1?
1B
16
1,
#775000
0&
0$
0A
0=
1-
#780000
0#
1$
0>
1=
0-
0?
0B
06
0,
#785000
0%
0@
1-
#790000
1%
1@
0-
#795000
1#
1>
1-
1?
1B
16
1,
#800000
1&
0$
0%
1A
0=
0@
0-
#805000
0#
0&
1%
0>
0A
1@
1-
0?
0B
06
0,
#810000
1$
1&
1=
1A
0-
#815000
1#
0%
0$
0&
1>
0@
0=
0A
1-
1?
1B
16
1,
#820000
1%
1$
1&
1@
1=
1A
0-
#825000
0#
0%
0$
0>
0@
0=
1-
0?
0B
06
0,
#830000
1%
1$
1@
1=
0-
#835000
0&
1#
0%
0$
0A
1>
0@
0=
1-
1?
1B
16
1,
#840000
1&
1%
1$
1A
1@
1=
0-
#845000
0#
0&
0$
0>
0A
0=
1-
0?
0B
06
0,
#850000
1$
1=
0-
#855000
1#
1>
1-
1?
1B
16
1,
#860000
0%
1&
0$
0#
0@
1A
0=
0>
0-
0?
0B
06
0,
#865000
1%
1#
1@
1>
1-
1?
1B
16
1,
#870000
0&
1$
0#
0A
1=
0>
0-
0?
0B
06
0,
#875000
0%
1&
0$
0@
1A
0=
1-
#880000
1)
1#
1%
0&
1$
1<
1>
1@
0A
1=
0-
1?
1B
16
1,
#885000
0#
0>
1-
#890000
0%
0@
0-
#895000
0$
1#
0=
1>
1-
0?
0B
06
0,
#900000
1$
1=
0-
1?
1B
16
1,
#905000
0#
0$
0>
0=
1-
0?
0B
06
0,
#910000
1&
1%
1A
1@
0-
#915000
1#
1$
1>
1=
1-
1?
1B
16
1,
#920000
0&
0#
0$
0A
0>
0=
0-
0?
0B
06
0,
#925000
0%
1&
1$
0@
1A
1=
1-
1?
1B
16
1,
#930000
1#
1%
0&
1>
1@
0A
0-
#935000
0%
0@
1-
#940000
0#
0>
0-
#945000
1&
1#
1A
1>
1-
#950000
1%
0#
1@
0>
0-
#955000
0$
0=
1-
0?
0B
06
0,
#960000
1(
0)
0&
1#
1$
1;
0<
0A
1>
1=
0-
#965000
0$
0=
1-
#975000
0%
0#
0@
0>
0-
#985000
1%
1@
1-
#990000
1#
0%
1>
0@
0-
#995000
1$
0#
1=
0>
1-
