relatorio3/simulation/qsim/relatorio3.msim.vcd
$comment
	File created using the following command:
		vcd file relatorio3.msim.vcd -direction
$end
$date
	Fri Sep 30 11:34:28 2022
$end
$version
	ModelSim Version 10.1d
$end
$timescale
	1ps
$end
$scope module relatorio3_vlg_vec_tst $end
$var reg 1 ! a $end
$var reg 1 " b $end
$var reg 1 # s $end
$var wire 1 $ x1 $end
$var wire 1 % x2 $end
$var wire 1 & sampler $end
$scope module i1 $end
$var wire 1 ' gnd $end
$var wire 1 ( vcc $end
$var wire 1 ) unknown $end
$var tri1 1 * devclrn $end
$var tri1 1 + devpor $end
$var tri1 1 , devoe $end
$var wire 1 - x1~output_o $end
$var wire 1 . x2~output_o $end
$var wire 1 / b~input_o $end
$var wire 1 0 s~input_o $end
$var wire 1 1 a~input_o $end
$var wire 1 2 x1~0_combout $end
$upscope $end
$upscope $end
$enddefinitions $end
#0
$dumpvars
0!
1"
0#
0$
0%
x&
0'
1(
x)
1*
1+
1,
0-
0.
1/
00
01
02
$end
#5000
1!
11
0&
12
1.
1-
1%
1$
#10000
0"
0/
1&
#15000
0!
01
0&
02
0.
0-
0%
0$
#25000
1!
11
1&
12
1.
1-
1%
1$
#35000
1"
0!
1/
01
0&
02
0.
0-
0%
0$
#40000
0"
0/
1&
#45000
1"
1/
0&
#50000
0"
0/
1&
#55000
1!
1"
11
1/
0&
12
1.
1-
1%
1$
#60000
0"
0/
1&
#65000
0!
1"
01
1/
0&
02
0.
0-
0%
0$
#70000
0"
0/
1&
#80000
1!
1"
11
1/
0&
12
1.
1-
1%
1$
#85000
0!
01
1&
02
0.
0-
0%
0$
#95000
0"
0/
0&
#100000
1!
11
1&
12
1.
1-
1%
1$
#105000
1"
1/
0&
#110000
0"
0/
1&
#115000
0!
1"
01
1/
0&
02
0.
0-
0%
0$
#125000
1!
0"
11
0/
1&
12
1.
1-
1%
1$
#130000
1"
1/
0&
#150000
0"
0/
1&
#155000
0!
1"
01
1/
0&
02
0.
0-
0%
0$
#165000
1!
11
1&
12
1.
1-
1%
1$
#170000
0"
0/
0&
#175000
0!
01
1&
02
0.
0-
0%
0$
#185000
1!
11
0&
12
1.
1-
1%
1$
#195000
0!
01
1&
02
0.
0-
0%
0$
#200000
1"
1!
1/
11
0&
12
1.
1-
1%
1$
#210000
0!
01
1&
02
0.
0-
0%
0$
#220000
0"
1!
0/
11
0&
12
1.
1-
1%
1$
#225000
1"
1/
1&
#230000
0"
0/
0&
#235000
0!
01
1&
02
0.
0-
0%
0$
#245000
1!
11
0&
12
1.
1-
1%
1$
#250000
1"
1/
1&
#255000
0!
01
0&
02
0.
0-
0%
0$
#275000
0"
0/
1&
#285000
1"
1/
0&
#290000
1!
11
1&
12
1.
1-
1%
1$
#295000
0!
01
0&
02
0.
0-
0%
0$
#300000
1!
11
1&
12
1.
1-
1%
1$
#305000
0!
01
0&
02
0.
0-
0%
0$
#315000
0"
1!
0/
11
1&
12
1.
1-
1%
1$
#320000
1"
1/
0&
#325000
0"
0/
1&
#330000
0!
1"
01
1/
0&
02
0.
0-
0%
0$
#335000
1!
11
1&
12
1.
1-
1%
1$
#345000
0!
01
0&
02
0.
0-
0%
0$
#350000
0"
0/
1&
#355000
1!
1"
11
1/
0&
12
1.
1-
1%
1$
#360000
0"
0/
1&
#365000
1"
1/
0&
#370000
0!
0"
01
0/
1&
02
0.
0-
0%
0$
#385000
1!
11
0&
12
1.
1-
1%
1$
#390000
1"
0!
1/
01
1&
02
0.
0-
0%
0$
#405000
0"
1!
0/
11
0&
12
1.
1-
1%
1$
#410000
0!
01
1&
02
0.
0-
0%
0$
#425000
1!
11
0&
12
1.
1-
1%
1$
#430000
1"
0!
1/
01
1&
02
0.
0-
0%
0$
#435000
0"
0/
0&
#440000
1!
1"
11
1/
1&
12
1.
1-
1%
1$
#450000
0!
01
0&
02
0.
0-
0%
0$
#455000
0"
0/
1&
#465000
1!
1"
11
1/
0&
12
1.
1-
1%
1$
#470000
0!
01
1&
02
0.
0-
0%
0$
#475000
0"
0/
0&
#480000
1"
1/
1&
#490000
1!
11
0&
12
1.
1-
1%
1$
#495000
0!
01
1&
02
0.
0-
0%
0$
#500000
1!
11
0&
12
1.
1-
1%
1$
#505000
0"
0/
1&
#510000
1"
1/
0&
#515000
0!
0"
01
0/
1&
02
0.
0-
0%
0$
#520000
1!
1"
11
1/
0&
12
1.
1-
1%
1$
#525000
0!
0"
01
0/
1&
02
0.
0-
0%
0$
#530000
1!
11
0&
12
1.
1-
1%
1$
#535000
1"
0!
1/
01
1&
02
0.
0-
0%
0$
#540000
0"
1!
0/
11
0&
12
1.
1-
1%
1$
#545000
1"
1/
1&
#550000
0!
01
0&
02
0.
0-
0%
0$
#555000
1!
11
1&
12
1.
1-
1%
1$
#560000
0!
01
0&
02
0.
0-
0%
0$
#565000
0"
0/
1&
#570000
1!
1"
11
1/
0&
12
1.
1-
1%
1$
#575000
0!
0"
01
0/
1&
02
0.
0-
0%
0$
#580000
1!
1"
11
1/
0&
12
1.
1-
1%
1$
#590000
0!
01
1&
02
0.
0-
0%
0$
#600000
0"
0/
0&
#610000
1!
11
1&
12
1.
1-
1%
1$
#615000
0!
01
0&
02
0.
0-
0%
0$
#625000
1"
1/
1&
#640000
1!
11
0&
12
1.
1-
1%
1$
#645000
0!
01
1&
02
0.
0-
0%
0$
#650000
0"
1!
0/
11
0&
12
1.
1-
1%
1$
#655000
1"
0!
1/
01
1&
02
0.
0-
0%
0$
#660000
0"
0/
0&
#665000
1!
1"
11
1/
1&
12
1.
1-
1%
1$
#670000
0!
0"
01
0/
0&
02
0.
0-
0%
0$
#675000
1!
1"
11
1/
1&
12
1.
1-
1%
1$
#680000
0"
0/
0&
#690000
0!
01
1&
02
0.
0-
0%
0$
#695000
1!
11
0&
12
1.
1-
1%
1$
#705000
1"
1/
1&
#720000
0!
0"
01
0/
0&
02
0.
0-
0%
0$
#725000
1!
11
1&
12
1.
1-
1%
1$
#735000
1"
0!
1/
01
0&
02
0.
0-
0%
0$
#745000
0"
1!
0/
11
1&
12
1.
1-
1%
1$
#750000
0!
01
0&
02
0.
0-
0%
0$
#755000
1!
11
1&
12
1.
1-
1%
1$
#760000
1"
1/
0&
#765000
0!
01
1&
02
0.
0-
0%
0$
#775000
0"
0/
0&
#780000
1!
11
1&
12
1.
1-
1%
1$
#805000
1"
1/
0&
#810000
0"
0/
1&
#815000
1"
1/
0&
#835000
0"
0/
1&
#840000
0!
1"
01
1/
0&
02
0.
0-
0%
0$
#850000
0"
0/
1&
#855000
1!
11
0&
12
1.
1-
1%
1$
#860000
1"
0!
1/
01
1&
02
0.
0-
0%
0$
#865000
1!
11
0&
12
1.
1-
1%
1$
#870000
0!
01
1&
02
0.
0-
0%
0$
#875000
0"
0/
0&
#880000
1!
11
1&
12
1.
1-
1%
1$
#885000
1"
0!
1/
01
0&
02
0.
0-
0%
0$
#900000
0"
1!
0/
11
1&
12
1.
1-
1%
1$
#910000
0!
01
0&
02
0.
0-
0%
0$
#915000
1"
1/
1&
#920000
1!
11
0&
12
1.
1-
1%
1$
#925000
0"
0!
0/
01
1&
02
0.
0-
0%
0$
#930000
1"
1/
0&
#935000
0"
0/
1&
#940000
1!
11
0&
12
1.
1-
1%
1$
#945000
0!
01
1&
02
0.
0-
0%
0$
#950000
1"
1/
0&
#955000
0"
0/
1&
#960000
1"
1/
0&
#965000
1!
0"
11
0/
1&
12
1.
1-
1%
1$
#970000
0!
1"
01
1/
0&
02
0.
0-
0%
0$
#975000
0"
0/
1&
#980000
1"
1/
0&
#985000
1!
11
1&
12
1.
1-
1%
1$
#990000
0"
0!
0/
01
0&
02
0.
0-
0%
0$
#995000
1!
11
1&
12
1.
1-
1%
1$
