relatorio6/simulation/qsim/relatorio6.msim.vcd
$comment
	File created using the following command:
		vcd file relatorio6.msim.vcd -direction
$end
$date
	Fri Nov 25 11:53:44 2022
$end
$version
	ModelSim Version 10.1d
$end
$timescale
	1ps
$end
$scope module relatorio6_vlg_vec_tst $end
$var reg 1 ! clk $end
$var reg 1 " clr $end
$var wire 1 # q [3] $end
$var wire 1 $ q [2] $end
$var wire 1 % q [1] $end
$var wire 1 & q [0] $end
$var wire 1 ' tc $end
$var wire 1 ( sampler $end
$scope module i1 $end
$var wire 1 ) gnd $end
$var wire 1 * vcc $end
$var wire 1 + unknown $end
$var tri1 1 , devclrn $end
$var tri1 1 - devpor $end
$var tri1 1 . devoe $end
$var wire 1 / tc~output_o $end
$var wire 1 0 q[0]~output_o $end
$var wire 1 1 q[1]~output_o $end
$var wire 1 2 q[2]~output_o $end
$var wire 1 3 q[3]~output_o $end
$var wire 1 4 clk~input_o $end
$var wire 1 5 clk~inputclkctrl_outclk $end
$var wire 1 6 clr~input_o $end
$var wire 1 7 qv[0]~3_combout $end
$var wire 1 8 clr~inputclkctrl_outclk $end
$var wire 1 9 qv~0_combout $end
$var wire 1 : qv~1_combout $end
$var wire 1 ; qv~2_combout $end
$var wire 1 < tc~0_combout $end
$var wire 1 = tc~1_combout $end
$var wire 1 > tc~reg0_q $end
$var wire 1 ? qv [3] $end
$var wire 1 @ qv [2] $end
$var wire 1 A qv [1] $end
$var wire 1 B qv [0] $end
$upscope $end
$upscope $end
$enddefinitions $end
#0
$dumpvars
0!
0"
1&
1%
1$
1#
0'
x(
0)
1*
x+
1,
1-
1.
0/
10
11
12
13
04
05
06
17
08
09
0:
0;
0<
0=
0>
0B
0A
0@
0?
$end
#20000
1!
14
15
0(
1B
19
07
00
0&
#40000
0!
04
05
1(
#60000
1!
14
15
0(
1A
0B
17
01
10
0%
1&
#80000
0!
04
05
1(
#100000
1!
14
15
0(
1B
1:
09
07
00
0&
#120000
0!
04
05
1(
#140000
1!
14
15
0(
1@
0A
0B
17
02
11
10
0$
1%
1&
#160000
0!
04
05
1(
#180000
1!
14
15
0(
1B
19
07
00
0&
#200000
0!
04
05
1(
#220000
1!
14
15
0(
1A
0B
17
01
10
0%
1&
#240000
0!
04
05
1(
#260000
1!
14
15
0(
1B
1;
0:
09
07
00
0&
#280000
0!
04
05
1(
#300000
1!
14
15
0(
1?
0@
0A
0B
17
03
12
11
10
0#
1$
1%
1&
#320000
0!
04
05
1(
#340000
1!
14
15
0(
1B
19
07
00
0&
#360000
0!
04
05
1(
#380000
1!
14
15
0(
1A
0B
17
01
10
0%
1&
#400000
0!
04
05
1(
#420000
1!
14
15
0(
1B
1:
09
07
00
0&
#440000
0!
04
05
1(
#460000
1!
14
15
0(
1@
0A
0B
17
02
11
10
0$
1%
1&
#480000
0!
04
05
1(
#500000
1!
14
15
0(
1B
19
07
00
0&
#520000
0!
04
05
1(
#540000
1!
14
15
0(
1A
0B
1<
17
01
10
0%
1&
1=
#560000
0!
04
05
1(
#580000
1!
14
15
0(
1B
1>
0<
0;
0:
09
07
00
1/
0&
1'
0=
#600000
0!
04
05
1(
#620000
1!
14
15
0(
0?
0@
0A
0B
0>
17
13
12
11
10
0/
1#
1$
1%
1&
0'
#640000
0!
04
05
1(
#660000
1!
14
15
0(
1B
19
07
00
0&
#680000
0!
04
05
1(
#700000
1!
14
15
0(
1A
0B
17
01
10
0%
1&
#720000
0!
04
05
1(
#740000
1!
14
15
0(
1B
1:
09
07
00
0&
#760000
0!
04
05
1(
#780000
1!
14
15
0(
1@
0A
0B
17
02
11
10
0$
1%
1&
#800000
0!
04
05
1(
#820000
1!
14
15
0(
1B
19
07
00
0&
#840000
0!
04
05
1(
#860000
1!
14
15
0(
1A
0B
17
01
10
0%
1&
#880000
0!
04
05
1(
#900000
1!
14
15
0(
1B
1;
0:
09
07
00
0&
#920000
0!
04
05
1(
#940000
1!
14
15
0(
1?
0@
0A
0B
17
03
12
11
10
0#
1$
1%
1&
#960000
0!
04
05
1(
#980000
1!
14
15
0(
1B
19
07
00
0&
