decoder/simulation/qsim/decoder.msim.vcd
$comment
	File created using the following command:
		vcd file decoder.msim.vcd -direction
$end
$date
	Thu Oct 27 21:39:18 2022
$end
$version
	ModelSim Version 10.1d
$end
$timescale
	1ps
$end
$scope module decoder_vlg_vec_tst $end
$var reg 1 ! a1 $end
$var reg 1 " a2 $end
$var reg 1 # a3 $end
$var reg 1 $ a4 $end
$var wire 1 % s0 $end
$var wire 1 & s1 $end
$var wire 1 ' s2 $end
$var wire 1 ( s3 $end
$var wire 1 ) s4 $end
$var wire 1 * s5 $end
$var wire 1 + s6 $end
$var wire 1 , sampler $end
$scope module i1 $end
$var wire 1 - gnd $end
$var wire 1 . vcc $end
$var wire 1 / unknown $end
$var tri1 1 0 devclrn $end
$var tri1 1 1 devpor $end
$var tri1 1 2 devoe $end
$var wire 1 3 s6~output_o $end
$var wire 1 4 s5~output_o $end
$var wire 1 5 s4~output_o $end
$var wire 1 6 s3~output_o $end
$var wire 1 7 s2~output_o $end
$var wire 1 8 s1~output_o $end
$var wire 1 9 s0~output_o $end
$var wire 1 : a1~input_o $end
$var wire 1 ; a4~input_o $end
$var wire 1 < a2~input_o $end
$var wire 1 = a3~input_o $end
$var wire 1 > s6~0_combout $end
$var wire 1 ? s5~0_combout $end
$var wire 1 @ s4~0_combout $end
$var wire 1 A s3~0_combout $end
$var wire 1 B s2~0_combout $end
$var wire 1 C s1~0_combout $end
$var wire 1 D s0~0_combout $end
$upscope $end
$upscope $end
$enddefinitions $end
#0
$dumpvars
1!
1"
0#
1$
1%
1&
1'
1(
1)
1*
1+
x,
0-
1.
x/
10
11
12
13
14
15
16
17
18
19
1:
1;
1<
0=
1>
1?
1@
1A
1B
1C
1D
$end
#80000
0$
0"
0!
0;
0<
0:
0,
0D
0C
0B
0A
0@
0?
09
08
07
06
05
04
0%
0&
0'
0(
0)
0*
#160000
1$
1"
1;
1<
1,
1D
1C
1B
1A
1@
1?
19
18
17
16
15
14
1%
1&
1'
1(
1)
1*
#240000
0"
0<
0,
0D
0C
0B
0A
0@
0?
0>
09
08
07
06
05
04
03
0%
0&
0'
0(
0)
0*
0+
#320000
1#
0$
1=
0;
1,
1D
1A
1@
19
16
15
1%
1(
1)
#400000
1!
0#
1$
1:
0=
1;
0,
0D
09
0%
#480000
1#
0$
1=
0;
1,
1C
0A
18
06
1&
0(
#560000
0#
0=
0,
1D
0C
1A
1?
1>
19
08
16
14
13
1%
0&
1(
1*
1+
#640000
1$
1#
1;
1=
1,
1C
1B
18
17
1&
1'
#720000
0$
0;
0,
0D
0B
0A
0?
0>
09
07
06
04
03
0%
0'
0(
0*
0+
#800000
0!
0:
1,
1D
0C
1A
19
08
16
1%
0&
1(
#880000
1"
0#
1!
1<
0=
1:
0,
0D
0A
1?
09
06
14
0%
0(
1*
#960000
0!
0:
1,
1B
0@
17
05
1'
0)
