relatorio3a/simulation/qsim/relatorio3a.msim.vcd
$comment
	File created using the following command:
		vcd file relatorio3a.msim.vcd -direction
$end
$date
	Fri Sep 30 12:06:35 2022
$end
$version
	ModelSim Version 10.1d
$end
$timescale
	1ps
$end
$scope module relatorio3a_vlg_vec_tst $end
$var reg 1 ! i0 $end
$var reg 1 " i2 $end
$var reg 1 # i3 $end
$var reg 1 $ ia $end
$var reg 1 % s0 $end
$var reg 1 & s1 $end
$var wire 1 ' x $end
$var wire 1 ( sampler $end
$scope module i1 $end
$var wire 1 ) gnd $end
$var wire 1 * vcc $end
$var wire 1 + unknown $end
$var tri1 1 , devclrn $end
$var tri1 1 - devpor $end
$var tri1 1 . devoe $end
$var wire 1 / x~output_o $end
$var wire 1 0 i3~input_o $end
$var wire 1 1 s1~input_o $end
$var wire 1 2 s0~input_o $end
$var wire 1 3 i2~input_o $end
$var wire 1 4 i0~input_o $end
$var wire 1 5 x~0_combout $end
$var wire 1 6 ia~input_o $end
$var wire 1 7 x~1_combout $end
$upscope $end
$upscope $end
$enddefinitions $end
#0
$dumpvars
1!
1"
0#
1$
1%
1&
0'
x(
0)
1*
x+
1,
1-
1.
0/
00
11
12
13
14
15
16
07
$end
#5000
0$
0"
1#
06
03
10
0(
17
1/
1'
#10000
0!
1$
04
16
1(
#15000
0#
0$
00
06
0(
07
0/
0'
#20000
1$
16
1(
#25000
1!
0$
14
06
0(
#30000
1"
1#
1$
13
10
16
1(
17
1/
1'
#35000
0!
0"
0#
0$
04
03
00
06
0(
07
0/
0'
#40000
1#
1$
10
16
1(
17
1/
1'
#45000
0#
00
0(
07
0/
0'
#50000
1!
1"
0$
14
13
06
1(
#55000
0!
0"
1$
04
03
16
0(
#60000
1"
0$
13
06
1(
#65000
1#
1!
10
14
0(
17
1/
1'
#70000
0"
0#
0!
03
00
04
1(
07
0/
0'
#75000
1"
1#
13
10
0(
17
1/
1'
#80000
1!
0#
14
00
1(
07
0/
0'
#85000
1$
0"
0!
1#
16
03
04
10
0(
17
1/
1'
#90000
0$
1!
06
14
1(
#95000
0#
1$
0!
00
16
04
0(
07
0/
0'
#100000
1"
0$
13
06
1(
#105000
1#
0"
10
03
0(
17
1/
1'
#110000
1!
14
1(
#115000
1"
0!
13
04
0(
#120000
0#
1!
00
14
1(
07
0/
0'
#125000
1$
1#
0!
16
10
04
0(
17
1/
1'
#135000
0"
0$
03
06
1(
#140000
0#
1!
00
14
0(
07
0/
0'
#150000
1"
1$
1#
0!
13
16
10
04
1(
17
1/
1'
#155000
0"
0#
03
00
0(
07
0/
0'
#160000
0$
1!
06
14
1(
#165000
0!
04
0(
#170000
1#
10
1(
17
1/
1'
#175000
1$
16
0(
#180000
1"
13
1(
#185000
1!
0"
14
03
0(
#190000
0!
04
1(
#195000
0#
0$
1!
00
06
14
0(
07
0/
0'
#205000
0!
04
1(
#210000
1"
1#
1$
1!
13
10
16
14
0(
17
1/
1'
#215000
0#
0$
0!
00
06
04
1(
07
0/
0'
#220000
1#
1!
10
14
0(
17
1/
1'
#225000
0"
03
1(
#230000
0!
04
0(
#235000
1$
1"
16
13
1(
#240000
0#
1!
00
14
0(
07
0/
0'
#245000
0$
0!
06
04
1(
#250000
1!
14
0(
#255000
1$
0!
16
04
1(
#260000
0"
1!
03
14
0(
#265000
1#
1"
10
13
1(
17
1/
1'
#270000
0!
0#
0"
04
00
03
0(
07
0/
0'
#275000
0$
1!
1#
06
14
10
1(
17
1/
1'
#280000
0#
00
0(
07
0/
0'
#290000
1#
10
1(
17
1/
1'
#295000
1$
0#
16
00
0(
07
0/
0'
#305000
1"
0!
13
04
1(
#310000
1#
10
0(
17
1/
1'
#315000
0$
0#
06
00
1(
07
0/
0'
#320000
0%
1!
1$
02
14
16
0(
17
1/
1'
#325000
1#
0$
10
06
1(
#330000
0"
0!
0#
1$
03
04
00
16
0(
05
07
0/
0'
#335000
1!
1#
14
10
1(
#340000
0$
06
0(
#345000
1"
0#
13
00
1(
15
17
1/
1'
#350000
1$
16
0(
#360000
0!
0"
1#
04
03
10
1(
05
07
0/
0'
#365000
1!
1"
0#
14
13
00
0(
15
17
1/
1'
#370000
0$
1#
06
10
1(
#375000
0"
1$
03
16
0(
05
07
0/
0'
#380000
0!
0#
1"
0$
04
00
13
06
1(
15
17
1/
1'
#385000
1!
1#
1$
14
10
16
0(
#390000
0!
04
1(
#395000
0"
0#
1!
03
00
14
0(
05
07
0/
0'
#400000
0&
0$
1#
0!
01
06
10
04
1(
#405000
1$
1!
16
14
0(
15
17
1/
1'
#410000
1"
13
1(
#415000
0#
0$
0!
0"
00
06
04
03
0(
05
07
0/
0'
#420000
1#
1$
10
16
1(
#425000
1"
0#
13
00
0(
#430000
1#
10
1(
#440000
1!
0"
14
03
0(
15
17
1/
1'
#445000
1"
13
1(
#450000
0#
0"
00
03
0(
#455000
1#
1"
10
13
1(
#460000
0!
0#
0"
04
00
03
0(
05
07
0/
0'
#465000
0$
1#
06
10
1(
#470000
1!
0#
14
00
0(
15
17
1/
1'
#475000
1"
1$
1#
13
16
10
1(
#480000
0!
0"
0$
04
03
06
0(
05
07
0/
0'
#485000
0#
1!
1"
00
14
13
1(
15
17
1/
1'
#490000
0!
04
0(
05
07
0/
0'
#495000
1#
0"
1!
10
03
14
1(
15
17
1/
1'
#500000
1$
0#
16
00
0(
#505000
1"
0$
1#
13
06
10
1(
#510000
0!
1$
04
16
0(
05
07
0/
0'
#515000
0"
0$
03
06
1(
#520000
0#
00
0(
#525000
1"
1#
13
10
1(
#530000
1!
1$
0"
14
16
03
0(
15
17
1/
1'
#535000
0!
1"
04
13
1(
05
07
0/
0'
#540000
1!
14
0(
15
17
1/
1'
#545000
0#
00
1(
#550000
0"
0!
1#
03
04
10
0(
05
07
0/
0'
#555000
0$
1!
0#
06
14
00
1(
15
17
1/
1'
#560000
1%
12
0(
05
07
0/
0'
#565000
1"
0!
1#
13
04
10
1(
#570000
1$
1!
0#
16
14
00
0(
17
1/
1'
#575000
0$
0!
1#
06
04
10
1(
07
0/
0'
#580000
0"
1!
0#
03
14
00
0(
#585000
1$
1#
16
10
1(
17
1/
1'
#590000
0!
0#
04
00
0(
#595000
0$
1#
06
10
1(
07
0/
0'
#600000
1"
1$
13
16
0(
17
1/
1'
#605000
1!
0#
0"
14
00
03
1(
#610000
1"
13
0(
#615000
0"
03
1(
#620000
1#
10
0(
#625000
0!
04
1(
#630000
0$
1"
06
13
0(
07
0/
0'
#635000
1!
1$
14
16
1(
17
1/
1'
#640000
1&
0%
11
02
0(
15
07
0/
0'
17
1/
1'
#645000
0#
0"
0$
00
03
06
1(
05
07
0/
0'
#650000
0!
1#
1"
04
10
13
0(
15
17
1/
1'
#655000
1$
0"
16
03
1(
05
07
0/
0'
#660000
1!
0#
0$
1"
14
00
06
13
0(
15
17
1/
1'
#665000
1#
1$
10
16
1(
#670000
0!
0#
04
00
0(
#675000
1#
10
1(
#680000
0$
1!
0#
06
14
00
0(
#685000
1#
10
1(
#695000
1$
0#
16
00
0(
#700000
0!
0$
1#
04
06
10
1(
#705000
1$
0#
16
00
0(
#710000
0"
03
1(
05
07
0/
0'
#715000
0$
1#
1"
06
10
13
0(
15
17
1/
1'
#720000
1%
1!
1$
0#
12
14
16
00
1(
07
0/
0'
#725000
0"
1#
03
10
0(
17
1/
1'
#730000
0!
0$
04
06
1(
#735000
1"
0#
1!
1$
13
00
14
16
0(
07
0/
0'
#740000
0"
0$
03
06
1(
#745000
1"
1$
13
16
0(
#750000
1#
0!
0"
10
04
03
1(
17
1/
1'
#755000
0$
0#
1!
1"
06
00
14
13
0(
07
0/
0'
#760000
1$
1#
0!
16
10
04
1(
17
1/
1'
#765000
0"
0$
0#
03
06
00
0(
07
0/
0'
#770000
1!
1#
14
10
1(
17
1/
1'
#775000
1"
1$
13
16
0(
#780000
0!
0#
0"
04
00
03
1(
07
0/
0'
#785000
1#
10
0(
17
1/
1'
#795000
1!
1"
14
13
1(
#800000
0$
06
0(
#805000
0#
00
1(
07
0/
0'
#810000
0!
0"
1#
04
03
10
0(
17
1/
1'
#815000
1$
1!
16
14
1(
#820000
0#
00
0(
07
0/
0'
#825000
1"
1#
13
10
1(
17
1/
1'
#830000
0"
03
0(
#835000
0#
1"
00
13
1(
07
0/
0'
#840000
0$
0!
0"
06
04
03
0(
#845000
1$
1!
1"
16
14
13
1(
#850000
1#
0$
10
06
0(
17
1/
1'
#855000
0!
0#
04
00
1(
07
0/
0'
#860000
1!
14
0(
#865000
1$
16
1(
#870000
0"
0!
0$
03
04
06
0(
#875000
1"
13
1(
#880000
1!
1$
0"
14
16
03
0(
#885000
1#
0!
0$
10
04
06
1(
17
1/
1'
#890000
1"
1$
13
16
0(
#895000
0#
1!
0$
00
14
06
1(
07
0/
0'
#900000
0"
0!
1$
03
04
16
0(
#905000
1"
1!
13
14
1(
#910000
0"
0!
03
04
0(
#915000
1#
0$
1"
1!
10
06
13
14
1(
17
1/
1'
#920000
0#
0"
0!
00
03
04
0(
07
0/
0'
#925000
1$
1"
16
13
1(
#930000
1#
0$
0"
10
06
03
0(
17
1/
1'
#935000
1!
1$
1"
14
16
13
1(
#940000
0#
0!
0"
00
04
03
0(
07
0/
0'
#945000
0$
1#
1!
06
10
14
1(
17
1/
1'
#950000
1$
0#
0!
16
00
04
0(
07
0/
0'
#955000
0$
1#
1!
06
10
14
1(
17
1/
1'
#960000
1"
0#
0!
13
00
04
0(
07
0/
0'
#965000
1#
10
1(
17
1/
1'
#970000
1!
0#
14
00
0(
07
0/
0'
#975000
1$
0!
16
04
1(
#980000
1!
14
0(
#985000
0"
1#
0$
0!
03
10
06
04
1(
17
1/
1'
#990000
0#
1$
00
16
0(
07
0/
0'
#995000
1"
1!
1#
0$
13
14
10
06
1(
17
1/
1'
