relatorio3a/simulation/qsim/relatorio3a.msim.vcd
$comment
	File created using the following command:
		vcd file relatorio3a.msim.vcd -direction
$end
$date
	Fri Oct 07 12:03:46 2022
$end
$version
	ModelSim Version 10.1d
$end
$timescale
	1ps
$end
$scope module relatorio3a_vlg_vec_tst $end
$var reg 1 ! i0 $end
$var reg 1 " i2 $end
$var reg 1 # i3 $end
$var reg 1 $ ia $end
$var reg 1 % s0 $end
$var reg 1 & s1 $end
$var wire 1 ' x $end
$var wire 1 ( x1 $end
$var wire 1 ) sampler $end
$scope module i1 $end
$var wire 1 * gnd $end
$var wire 1 + vcc $end
$var wire 1 , unknown $end
$var tri1 1 - devclrn $end
$var tri1 1 . devpor $end
$var tri1 1 / devoe $end
$var wire 1 0 x~output_o $end
$var wire 1 1 x1~output_o $end
$var wire 1 2 ia~input_o $end
$var wire 1 3 s0~input_o $end
$var wire 1 4 i0~input_o $end
$var wire 1 5 i2~input_o $end
$var wire 1 6 s1~input_o $end
$var wire 1 7 x~0_combout $end
$var wire 1 8 i3~input_o $end
$var wire 1 9 x~1_combout $end
$upscope $end
$upscope $end
$enddefinitions $end
#0
$dumpvars
1!
1"
1#
1$
1%
1&
1'
1(
x)
0*
1+
x,
1-
1.
1/
10
11
12
13
14
15
16
17
18
19
$end
#5000
0$
0#
02
08
0)
09
01
00
0(
0'
#10000
0!
0"
1$
1#
04
05
12
18
1)
19
11
10
1(
1'
#15000
1!
0#
14
08
0)
09
01
00
0(
0'
#20000
1"
0$
0!
1#
15
02
04
18
1)
19
11
10
1(
1'
#25000
0"
1!
05
14
0)
#30000
1$
0!
12
04
1)
#45000
0#
0$
1!
08
02
14
0)
09
01
00
0(
0'
#50000
1"
1#
1$
15
18
12
1)
19
11
10
1(
1'
#55000
0"
0#
05
08
0)
09
01
00
0(
0'
#60000
0!
04
1)
#65000
0$
1"
02
15
0)
#75000
1!
1$
0"
14
12
05
1)
#80000
0&
0%
0!
0$
1"
06
03
04
02
15
0)
07
19
11
10
1(
1'
09
01
00
0(
0'
#85000
1!
14
1)
17
19
11
10
1(
1'
#90000
0"
0!
05
04
0)
07
09
01
00
0(
0'
#95000
1$
12
1)
#100000
1#
1"
1!
18
15
14
0)
17
19
11
10
1(
1'
#105000
0"
05
1)
#110000
1"
15
0)
#115000
0!
0"
04
05
1)
07
09
01
00
0(
0'
#120000
0$
0#
1!
02
08
14
0)
17
19
11
10
1(
1'
#125000
1"
15
1)
#130000
0!
0"
04
05
0)
07
09
01
00
0(
0'
#135000
1$
1#
1"
12
18
15
1)
#140000
1!
0$
14
02
0)
17
19
11
10
1(
1'
#145000
0#
1$
08
12
1)
#150000
0"
0!
05
04
0)
07
09
01
00
0(
0'
#155000
1#
1!
18
14
1)
17
19
11
10
1(
1'
#160000
1&
1%
1"
0#
16
13
15
08
0)
09
01
00
0(
0'
#165000
0$
0!
0"
02
04
05
1)
#170000
1#
1!
1"
18
14
15
0)
19
11
10
1(
1'
#175000
0#
0!
0"
08
04
05
1)
09
01
00
0(
0'
#180000
1!
1"
14
15
0)
#185000
1#
0!
18
04
1)
19
11
10
1(
1'
#190000
1$
0"
0#
12
05
08
0)
09
01
00
0(
0'
#195000
1!
0$
1"
1#
14
02
15
18
1)
19
11
10
1(
1'
#200000
0!
1$
0"
0#
04
12
05
08
0)
09
01
00
0(
0'
#205000
0$
02
1)
#210000
1!
1"
14
15
0)
#215000
1$
12
1)
#220000
0$
02
0)
#225000
1#
0!
0"
18
04
05
1)
19
11
10
1(
1'
#230000
0#
1"
08
15
0)
09
01
00
0(
0'
#235000
1$
1!
12
14
1)
#240000
1#
0"
0$
0!
18
05
02
04
0)
19
11
10
1(
1'
#245000
1"
1!
15
14
1)
#250000
0#
1$
0!
08
12
04
0)
09
01
00
0(
0'
#255000
0"
0$
05
02
1)
#260000
1"
1$
15
12
0)
#265000
1#
18
1)
19
11
10
1(
1'
#270000
0"
0$
05
02
0)
#275000
1"
15
1)
#280000
0"
05
0)
#285000
0#
1$
08
12
1)
09
01
00
0(
0'
#290000
1!
1"
1#
0$
14
15
18
02
0)
19
11
10
1(
1'
#295000
1$
12
1)
#300000
0!
0"
0#
04
05
08
0)
09
01
00
0(
0'
#305000
0$
1#
02
18
1)
19
11
10
1(
1'
#310000
1!
1"
1$
14
15
12
0)
#315000
0#
0"
08
05
1)
09
01
00
0(
0'
#320000
0&
0$
06
02
0)
07
#325000
0!
1#
1"
1$
04
18
15
12
1)
19
11
10
1(
1'
#330000
0"
05
0)
#335000
1!
0#
1"
14
08
15
1)
#340000
0$
0!
0"
02
04
05
0)
09
01
00
0(
0'
#345000
1$
1!
12
14
1)
19
11
10
1(
1'
#350000
1"
0$
15
02
0)
09
01
00
0(
0'
#355000
1#
0"
1$
18
05
12
1)
19
11
10
1(
1'
#365000
0!
0#
1"
04
08
15
0)
#370000
1!
1#
0"
14
18
05
1)
#375000
0$
1"
02
15
0)
09
01
00
0(
0'
#380000
0#
1$
08
12
1)
19
11
10
1(
1'
#385000
0$
02
0)
09
01
00
0(
0'
#390000
0!
1$
04
12
1)
19
11
10
1(
1'
#395000
0"
1!
0$
05
14
02
0)
09
01
00
0(
0'
#400000
0%
1$
03
12
1)
17
19
11
10
1(
1'
#405000
1#
1"
18
15
0)
#410000
0!
0$
04
02
1)
07
09
01
00
0(
0'
#420000
0#
0"
1$
08
05
12
0)
#425000
1"
0$
15
02
1)
#430000
1!
1$
14
12
0)
17
19
11
10
1(
1'
#435000
1#
0"
18
05
1)
#440000
0#
08
0)
#445000
0$
1"
1#
02
15
18
1)
#450000
0!
1$
0"
04
12
05
0)
07
09
01
00
0(
0'
#455000
0#
1!
08
14
1)
17
19
11
10
1(
1'
#460000
1"
1#
15
18
0)
#465000
0!
0#
04
08
1)
07
09
01
00
0(
0'
#470000
0$
0"
02
05
0)
#475000
1!
1#
1$
14
18
12
1)
17
19
11
10
1(
1'
#480000
1&
0!
0#
0$
16
04
08
02
0)
07
09
01
00
0(
0'
#490000
1"
1!
1$
15
14
12
1)
17
19
11
10
1(
1'
#495000
1#
0!
0$
18
04
02
0)
#500000
1!
1$
14
12
1)
#505000
0#
0$
08
02
0)
#510000
1$
12
1)
#515000
0!
0$
04
02
0)
#520000
0"
1!
1$
05
14
12
1)
07
09
01
00
0(
0'
#525000
0!
04
0)
#530000
0$
02
1)
#535000
1"
1!
15
14
0)
17
19
11
10
1(
1'
#540000
1#
0"
18
05
1)
07
09
01
00
0(
0'
#545000
1$
12
0)
#550000
0#
08
1)
#555000
0!
1"
1#
04
15
18
0)
17
19
11
10
1(
1'
#560000
1%
0&
0"
13
06
05
1)
07
#565000
1!
0#
1"
14
08
15
0)
#570000
0$
02
1)
09
01
00
0(
0'
#575000
0"
1$
05
12
0)
19
11
10
1(
1'
#580000
1#
18
1)
#585000
0!
1"
0$
04
15
02
0)
09
01
00
0(
0'
#590000
1!
1$
14
12
1)
19
11
10
1(
1'
#595000
0#
0$
08
02
0)
09
01
00
0(
0'
#600000
0!
1#
1$
04
18
12
1)
19
11
10
1(
1'
#605000
0"
0$
05
02
0)
09
01
00
0(
0'
#610000
0#
1$
08
12
1)
19
11
10
1(
1'
#615000
1"
1#
15
18
0)
#620000
0$
0"
02
05
1)
09
01
00
0(
0'
#625000
1!
1$
1"
14
12
15
0)
19
11
10
1(
1'
#630000
0#
0$
0"
08
02
05
1)
09
01
00
0(
0'
#635000
0!
04
0)
#640000
0%
1$
1"
1!
03
12
15
14
1)
17
19
11
10
1(
1'
#645000
1#
0$
0"
18
02
05
0)
#650000
0!
0#
1$
1"
04
08
12
15
1)
07
09
01
00
0(
0'
#655000
1#
0"
18
05
0)
#660000
1!
0$
0#
14
02
08
1)
17
19
11
10
1(
1'
#665000
1"
0!
1#
15
04
18
0)
07
09
01
00
0(
0'
#670000
1!
14
1)
17
19
11
10
1(
1'
#675000
1$
0!
12
04
0)
07
09
01
00
0(
0'
#680000
0"
0#
0$
1!
05
08
02
14
1)
17
19
11
10
1(
1'
#685000
1"
1$
15
12
0)
#690000
0!
0"
0$
04
05
02
1)
07
09
01
00
0(
0'
#695000
1#
1"
1$
18
15
12
0)
#700000
0#
0"
08
05
1)
#705000
1!
0$
1"
14
02
15
0)
17
19
11
10
1(
1'
#710000
1#
1$
18
12
1)
#715000
0!
0"
04
05
0)
07
09
01
00
0(
0'
#720000
1&
0#
1"
16
08
15
1)
17
19
11
10
1(
1'
#725000
1!
0"
14
05
0)
07
09
01
00
0(
0'
#730000
0$
1#
1"
02
18
15
1)
17
19
11
10
1(
1'
#735000
0!
1$
0#
0"
04
12
08
05
0)
07
09
01
00
0(
0'
#740000
1"
15
1)
17
19
11
10
1(
1'
#745000
1!
0$
1#
14
02
18
0)
#750000
0!
1$
04
12
1)
#755000
0"
0#
05
08
0)
07
09
01
00
0(
0'
#760000
1!
0$
1"
1#
14
02
15
18
1)
17
19
11
10
1(
1'
#765000
0!
0#
04
08
0)
#770000
0"
1#
05
18
1)
07
09
01
00
0(
0'
#775000
1$
1!
12
14
0)
#780000
1"
0#
0$
15
08
02
1)
17
19
11
10
1(
1'
#785000
0"
05
0)
07
09
01
00
0(
0'
#790000
0!
1"
04
15
1)
17
19
11
10
1(
1'
#795000
0"
05
0)
07
09
01
00
0(
0'
#800000
0&
1#
06
18
1)
#805000
1!
1"
0#
14
15
08
0)
17
19
11
10
1(
1'
#810000
1$
0!
1#
12
04
18
1)
07
09
01
00
0(
0'
#815000
0"
1!
05
14
0)
17
19
11
10
1(
1'
#820000
0$
1"
02
15
1)
#825000
0"
05
0)
#830000
0#
0!
1"
08
04
15
1)
07
09
01
00
0(
0'
#835000
1#
1!
18
14
0)
17
19
11
10
1(
1'
#840000
1$
0"
0#
0!
12
05
08
04
1)
07
09
01
00
0(
0'
#845000
0$
1"
1!
02
15
14
0)
17
19
11
10
1(
1'
#850000
0!
04
1)
07
09
01
00
0(
0'
#855000
1#
1$
18
12
0)
#860000
1!
0#
14
08
1)
17
19
11
10
1(
1'
#865000
0"
0$
0!
1#
05
02
04
18
0)
07
09
01
00
0(
0'
#870000
1"
1$
15
12
1)
#875000
0$
02
0)
#880000
0#
1$
08
12
1)
#885000
0"
1#
0$
05
18
02
0)
#890000
1"
0#
1$
15
08
12
1)
#895000
1!
1#
0$
14
18
02
0)
17
19
11
10
1(
1'
#900000
0!
0#
04
08
1)
07
09
01
00
0(
0'
#905000
1!
14
0)
17
19
11
10
1(
1'
#910000
1$
1#
12
18
1)
#915000
0"
0!
0$
0#
05
04
02
08
0)
07
09
01
00
0(
0'
#920000
1"
1$
1#
15
12
18
1)
#925000
1!
0#
14
08
0)
17
19
11
10
1(
1'
#930000
0!
1#
04
18
1)
07
09
01
00
0(
0'
#935000
0"
0$
05
02
0)
#940000
1!
0#
14
08
1)
17
19
11
10
1(
1'
#945000
1$
1#
12
18
0)
#950000
0!
04
1)
07
09
01
00
0(
0'
#955000
0$
0#
02
08
0)
#960000
1&
1!
1$
16
14
12
1)
#965000
1"
1#
0$
15
18
02
0)
17
19
11
10
1(
1'
#970000
0!
0"
04
05
1)
07
09
01
00
0(
0'
#975000
1$
1!
1"
12
14
15
0)
17
19
11
10
1(
1'
#980000
0#
0$
0!
0"
08
02
04
05
1)
07
09
01
00
0(
0'
#985000
1#
1$
18
12
0)
#990000
0#
0$
08
02
1)
#995000
1!
1#
1$
14
18
12
0)
