projeto_final/simulation/qsim/projeto_final.msim.vcd
$comment
	File created using the following command:
		vcd file projeto_final.msim.vcd -direction
$end
$date
	Sun Dec 04 12:57:23 2022
$end
$version
	ModelSim Version 10.1d
$end
$timescale
	1ps
$end
$scope module projeto_final_vlg_vec_tst $end
$var reg 1 ! btn $end
$var reg 1 " clk $end
$var reg 1 # N $end
$var wire 1 $ b1 $end
$var wire 1 % b2 $end
$var wire 1 & c0 $end
$var wire 1 ' c1 $end
$var wire 1 ( d1 $end
$var wire 1 ) d2 $end
$var wire 1 * T [31] $end
$var wire 1 + T [30] $end
$var wire 1 , T [29] $end
$var wire 1 - T [28] $end
$var wire 1 . T [27] $end
$var wire 1 / T [26] $end
$var wire 1 0 T [25] $end
$var wire 1 1 T [24] $end
$var wire 1 2 T [23] $end
$var wire 1 3 T [22] $end
$var wire 1 4 T [21] $end
$var wire 1 5 T [20] $end
$var wire 1 6 T [19] $end
$var wire 1 7 T [18] $end
$var wire 1 8 T [17] $end
$var wire 1 9 T [16] $end
$var wire 1 : T [15] $end
$var wire 1 ; T [14] $end
$var wire 1 < T [13] $end
$var wire 1 = T [12] $end
$var wire 1 > T [11] $end
$var wire 1 ? T [10] $end
$var wire 1 @ T [9] $end
$var wire 1 A T [8] $end
$var wire 1 B T [7] $end
$var wire 1 C T [6] $end
$var wire 1 D T [5] $end
$var wire 1 E T [4] $end
$var wire 1 F T [3] $end
$var wire 1 G T [2] $end
$var wire 1 H T [1] $end
$var wire 1 I T [0] $end
$var wire 1 J sampler $end
$scope module i1 $end
$var wire 1 K gnd $end
$var wire 1 L vcc $end
$var wire 1 M unknown $end
$var tri1 1 N devclrn $end
$var tri1 1 O devpor $end
$var tri1 1 P devoe $end
$var wire 1 Q T[0]~output_o $end
$var wire 1 R T[1]~output_o $end
$var wire 1 S T[2]~output_o $end
$var wire 1 T T[3]~output_o $end
$var wire 1 U T[4]~output_o $end
$var wire 1 V T[5]~output_o $end
$var wire 1 W T[6]~output_o $end
$var wire 1 X T[7]~output_o $end
$var wire 1 Y T[8]~output_o $end
$var wire 1 Z T[9]~output_o $end
$var wire 1 [ T[10]~output_o $end
$var wire 1 \ T[11]~output_o $end
$var wire 1 ] T[12]~output_o $end
$var wire 1 ^ T[13]~output_o $end
$var wire 1 _ T[14]~output_o $end
$var wire 1 ` T[15]~output_o $end
$var wire 1 a T[16]~output_o $end
$var wire 1 b T[17]~output_o $end
$var wire 1 c T[18]~output_o $end
$var wire 1 d T[19]~output_o $end
$var wire 1 e T[20]~output_o $end
$var wire 1 f T[21]~output_o $end
$var wire 1 g T[22]~output_o $end
$var wire 1 h T[23]~output_o $end
$var wire 1 i T[24]~output_o $end
$var wire 1 j T[25]~output_o $end
$var wire 1 k T[26]~output_o $end
$var wire 1 l T[27]~output_o $end
$var wire 1 m T[28]~output_o $end
$var wire 1 n T[29]~output_o $end
$var wire 1 o T[30]~output_o $end
$var wire 1 p T[31]~output_o $end
$var wire 1 q b1~output_o $end
$var wire 1 r b2~output_o $end
$var wire 1 s c0~output_o $end
$var wire 1 t c1~output_o $end
$var wire 1 u d1~output_o $end
$var wire 1 v d2~output_o $end
$var wire 1 w clk~input_o $end
$var wire 1 x clk~inputclkctrl_outclk $end
$var wire 1 y N~input_o $end
$var wire 1 z inst_datapath|Add0~1 $end
$var wire 1 { inst_datapath|Add0~2_combout $end
$var wire 1 | inst_datapath|Tv~1_combout $end
$var wire 1 } inst_datapath|Add0~3 $end
$var wire 1 ~ inst_datapath|Add0~4_combout $end
$var wire 1 !! inst_datapath|Tv[2]~4_combout $end
$var wire 1 "! inst_datapath|Add0~5 $end
$var wire 1 #! inst_datapath|Add0~6_combout $end
$var wire 1 $! inst_datapath|Tv~2_combout $end
$var wire 1 %! inst_datapath|Add0~7 $end
$var wire 1 &! inst_datapath|Add0~8_combout $end
$var wire 1 '! inst_datapath|Tv~3_combout $end
$var wire 1 (! inst_datapath|Equal0~0_combout $end
$var wire 1 )! inst_datapath|tc~0_combout $end
$var wire 1 *! inst_datapath|tc~q $end
$var wire 1 +! btn~input_o $end
$var wire 1 ,! inst_control|n1~0_combout $end
$var wire 1 -! inst_control|n1~1_combout $end
$var wire 1 .! inst_control|n1~q $end
$var wire 1 /! inst_control|n0~0_combout $end
$var wire 1 0! inst_control|n0~1_combout $end
$var wire 1 1! inst_control|n0~q $end
$var wire 1 2! inst_control|rt2~0_combout $end
$var wire 1 3! inst_control|rt2~1_combout $end
$var wire 1 4! inst_control|rt2~q $end
$var wire 1 5! inst_control|rt1~0_combout $end
$var wire 1 6! inst_control|rt1~1_combout $end
$var wire 1 7! inst_control|rt1~q $end
$var wire 1 8! inst_datapath|process_0~0_combout $end
$var wire 1 9! inst_datapath|Add0~0_combout $end
$var wire 1 :! inst_datapath|Tv~0_combout $end
$var wire 1 ;! inst_datapath|T[0]~0_combout $end
$var wire 1 <! inst_datapath|T[1]~feeder_combout $end
$var wire 1 =! inst_datapath|T[2]~1_combout $end
$var wire 1 >! inst_datapath|T[3]~feeder_combout $end
$var wire 1 ?! inst_datapath|T[4]~2_combout $end
$var wire 1 @! inst_datapath|T[31]~feeder_combout $end
$var wire 1 A! inst_control|b1~0_combout $end
$var wire 1 B! inst_control|b1~q $end
$var wire 1 C! inst_control|b2~0_combout $end
$var wire 1 D! inst_control|b2~1_combout $end
$var wire 1 E! inst_control|b2~q $end
$var wire 1 F! inst_datapath|Tv [4] $end
$var wire 1 G! inst_datapath|Tv [3] $end
$var wire 1 H! inst_datapath|Tv [2] $end
$var wire 1 I! inst_datapath|Tv [1] $end
$var wire 1 J! inst_datapath|Tv [0] $end
$var wire 1 K! inst_datapath|T [31] $end
$var wire 1 L! inst_datapath|T [30] $end
$var wire 1 M! inst_datapath|T [29] $end
$var wire 1 N! inst_datapath|T [28] $end
$var wire 1 O! inst_datapath|T [27] $end
$var wire 1 P! inst_datapath|T [26] $end
$var wire 1 Q! inst_datapath|T [25] $end
$var wire 1 R! inst_datapath|T [24] $end
$var wire 1 S! inst_datapath|T [23] $end
$var wire 1 T! inst_datapath|T [22] $end
$var wire 1 U! inst_datapath|T [21] $end
$var wire 1 V! inst_datapath|T [20] $end
$var wire 1 W! inst_datapath|T [19] $end
$var wire 1 X! inst_datapath|T [18] $end
$var wire 1 Y! inst_datapath|T [17] $end
$var wire 1 Z! inst_datapath|T [16] $end
$var wire 1 [! inst_datapath|T [15] $end
$var wire 1 \! inst_datapath|T [14] $end
$var wire 1 ]! inst_datapath|T [13] $end
$var wire 1 ^! inst_datapath|T [12] $end
$var wire 1 _! inst_datapath|T [11] $end
$var wire 1 `! inst_datapath|T [10] $end
$var wire 1 a! inst_datapath|T [9] $end
$var wire 1 b! inst_datapath|T [8] $end
$var wire 1 c! inst_datapath|T [7] $end
$var wire 1 d! inst_datapath|T [6] $end
$var wire 1 e! inst_datapath|T [5] $end
$var wire 1 f! inst_datapath|T [4] $end
$var wire 1 g! inst_datapath|T [3] $end
$var wire 1 h! inst_datapath|T [2] $end
$var wire 1 i! inst_datapath|T [1] $end
$var wire 1 j! inst_datapath|T [0] $end
$var wire 1 k! inst_datapath|sub_in [4] $end
$var wire 1 l! inst_datapath|sub_in [3] $end
$var wire 1 m! inst_datapath|sub_in [2] $end
$var wire 1 n! inst_datapath|sub_in [1] $end
$var wire 1 o! inst_datapath|sub_in [0] $end
$upscope $end
$upscope $end
$enddefinitions $end
#0
$dumpvars
1!
0"
0#
0$
0%
0&
0'
1(
0)
1I
0H
0G
0F
0E
0D
0C
0B
0A
0@
0?
0>
0=
0<
0;
0:
09
08
07
06
05
04
03
02
01
00
0/
0.
0-
0,
0+
1*
xJ
0K
1L
xM
1N
1O
1P
1Q
0R
0S
0T
0U
0V
0W
0X
0Y
0Z
0[
0\
0]
0^
0_
0`
0a
0b
0c
0d
0e
0f
0g
0h
0i
0j
0k
0l
0m
0n
0o
1p
0q
0r
0s
0t
1u
0v
0w
0x
0y
0z
1{
1|
1}
0~
1!!
1"!
0#!
0$!
0%!
1&!
0'!
0(!
0)!
0*!
1+!
0,!
0-!
0.!
1/!
00!
01!
02!
03!
04!
15!
16!
07!
18!
19!
1:!
1;!
0<!
1=!
0>!
1?!
1@!
0A!
0B!
0C!
0D!
0E!
0J!
0I!
0H!
0G!
0F!
0j!
0i!
0h!
0g!
0f!
ze!
zd!
zc!
zb!
za!
z`!
z_!
z^!
z]!
z\!
z[!
zZ!
zY!
zX!
zW!
zV!
zU!
zT!
zS!
zR!
zQ!
zP!
zO!
zN!
zM!
zL!
0K!
0o!
zn!
zm!
zl!
zk!
$end
#10000
1"
1w
1x
0J
1K!
1j!
1J!
1o!
17!
1H!
1I!
1f!
1h!
0;!
1z
09!
0=!
0"!
1~
1<!
0}
0{
0p
0Q
1U
1S
0*
0I
1E
1G
1{
0:!
1%!
1#!
0!!
1"!
0~
0|
1|
0&!
1$!
0%!
0#!
1!!
1'!
1&!
0$!
0'!
#20000
0"
0w
0x
1J
#30000
1"
1w
1x
0J
0j!
0J!
0h!
1i!
1;!
0z
19!
1Q
0S
1R
1I
0G
1H
0{
1:!
0|
#40000
0"
0w
0x
1J
#50000
1"
1w
1x
0J
1j!
1J!
0I!
0;!
1z
09!
0<!
1}
1{
0Q
0I
0}
0{
0:!
0"!
1~
1|
1"!
0~
0|
1%!
1#!
0!!
0%!
0#!
1!!
0&!
1$!
1&!
0$!
1'!
0'!
#60000
0"
0w
0x
1J
#70000
1"
1w
1x
0J
0j!
0J!
0i!
1;!
0z
19!
1Q
0R
1I
0H
1}
1{
1:!
0"!
1~
1|
1%!
1#!
0!!
0&!
1$!
1'!
#80000
0"
0w
0x
1J
#90000
1"
1w
1x
0J
1j!
1J!
1F!
1G!
0H!
1I!
0;!
1z
09!
0?!
1&!
1>!
0%!
0#!
1=!
1"!
0~
1<!
0}
0{
0Q
0I
1{
0:!
0'!
0&!
0$!
1#!
1!!
1~
0|
1|
1'!
1$!
0!!
#100000
0!
0"
0+!
0w
0x
1J
10!
#110000
1"
1w
1x
0J
0j!
0J!
0f!
1g!
1h!
1i!
11!
1;!
0z
19!
05!
0/!
1,!
1Q
0U
1T
1S
1R
1s
1I
0E
1F
1G
1H
1&
0{
1:!
06!
00!
1-!
0|
#120000
0"
0w
0x
1J
#130000
1"
1w
1x
0J
1j!
1J!
07!
0I!
01!
1.!
0;!
1z
09!
0<!
1}
1{
1A!
1C!
0Q
0s
1t
0I
0&
1'
0}
0{
0:!
0~
1|
1~
0|
1!!
0!!
#140000
0"
0w
0x
1J
#150000
1"
1w
1x
0J
0j!
0J!
1B!
0i!
1;!
0z
19!
1Q
1q
0R
1I
1$
0H
1}
1{
1:!
0~
1|
1!!
#160000
0"
0w
0x
1J
#170000
1"
1w
1x
0J
1j!
1J!
1H!
1I!
0;!
1z
09!
0=!
0"!
1~
1<!
0}
0{
0Q
0I
1{
0:!
0#!
0!!
1"!
0~
0|
1|
0$!
1#!
1!!
1$!
#180000
0"
0w
0x
1J
#190000
1"
1w
1x
0J
0j!
0J!
0h!
1i!
1;!
0z
19!
1Q
0S
1R
1I
0G
1H
0{
1:!
0|
#200000
0"
0w
0x
1J
#210000
1"
1w
1x
0J
1j!
1J!
0I!
0;!
1z
09!
0<!
1}
1{
0Q
0I
0}
0{
0:!
0"!
1~
1|
1"!
0~
0|
0#!
0!!
1#!
1!!
0$!
1$!
#220000
0"
0w
0x
1J
#230000
1"
1w
1x
0J
0j!
0J!
0i!
1;!
0z
19!
1Q
0R
1I
0H
1}
1{
1:!
0"!
1~
1|
0#!
0!!
0$!
#240000
0"
0w
0x
1J
#250000
1#
1"
1y
1w
1x
0J
1/!
0,!
10!
0-!
1j!
1J!
0G!
0H!
1I!
0;!
1z
09!
0>!
1%!
1#!
1=!
1"!
0~
1<!
0}
0{
0Q
0I
1{
0:!
1&!
1$!
0%!
0#!
1!!
1~
0|
1|
0'!
0&!
0$!
0!!
1'!
#260000
0"
0w
0x
1J
#270000
1"
1w
1x
0J
0j!
0J!
0g!
1h!
1i!
11!
0.!
1;!
0z
19!
0A!
0C!
1Q
0T
1S
1R
1s
0t
1I
0F
1G
1H
1&
0'
0{
1:!
0|
#280000
0"
0w
0x
1J
#290000
1"
1w
1x
0J
1j!
1J!
0I!
0B!
0;!
1z
09!
0<!
1}
1{
0Q
0q
0I
0$
0}
0{
0:!
0~
1|
1~
0|
1!!
0!!
#300000
0"
0w
0x
1J
#310000
1"
1w
1x
0J
0j!
0J!
0i!
1;!
0z
19!
1Q
0R
1I
0H
1}
1{
1:!
0~
1|
1!!
#320000
0"
0w
0x
1J
#330000
1"
1w
1x
0J
1j!
1J!
1H!
1I!
0;!
1z
09!
0=!
0"!
1~
1<!
0}
0{
0Q
0I
1{
0:!
1%!
1#!
0!!
1"!
0~
0|
1|
1&!
1$!
0%!
0#!
1!!
0'!
0&!
0$!
1'!
#340000
0"
0w
0x
1J
#350000
1"
1w
1x
0J
0j!
0J!
0h!
1i!
1;!
0z
19!
1Q
0S
1R
1I
0G
1H
0{
1:!
0|
#360000
0"
0w
0x
1J
#370000
1"
1w
1x
0J
1j!
1J!
0I!
0;!
1z
09!
0<!
1(!
1}
1{
0Q
0I
0}
0{
0:!
1)!
1|
0"!
1~
1"!
0~
0|
1%!
1#!
0!!
0%!
0#!
1!!
1&!
1$!
0&!
0$!
0'!
1'!
#380000
0"
0w
0x
1J
#390000
1"
1w
1x
0J
0j!
0J!
0i!
1*!
1;!
1:!
0z
19!
12!
1Q
0R
1v
0u
1I
0H
1)
0(
1}
1{
13!
1-!
0"!
1~
1%!
1#!
0!!
1&!
#400000
0"
0w
0x
1J
#410000
1"
1w
1x
0J
1j!
1J!
14!
0H!
1.!
0;!
0)!
0'!
1$!
1|
1z
09!
08!
1=!
0(!
1"!
0~
1C!
0Q
1t
0I
1'
0}
0{
0:!
1)!
0%!
0#!
1!!
1D!
1~
0|
0&!
0$!
0!!
1'!
#420000
0"
0w
0x
1J
#430000
1"
1w
1x
0J
0j!
0J!
0o!
1E!
1h!
1;!
0z
19!
1Q
1r
1S
1I
1%
1G
1}
1{
1:!
0~
1|
1!!
#440000
0"
0w
0x
1J
#450000
1"
1w
1x
0J
1j!
1J!
1H!
1I!
0;!
1z
09!
0=!
0"!
1~
1<!
0}
0{
0Q
0I
1{
0:!
1%!
1#!
0!!
1"!
0~
0|
1|
1&!
1$!
0%!
0#!
1!!
0'!
0&!
0$!
1'!
#460000
0"
0w
0x
1J
#470000
1"
1w
1x
0J
0j!
0J!
0h!
1i!
1;!
0z
19!
1Q
0S
1R
1I
0G
1H
0{
1:!
0|
#480000
0"
0w
0x
1J
#490000
1"
1w
1x
0J
1j!
1J!
0I!
0;!
1z
09!
0<!
1(!
1}
1{
0Q
0I
0}
0{
0:!
0)!
1|
0"!
1~
1"!
0~
0|
1%!
1#!
0!!
0%!
0#!
1!!
1&!
1$!
0&!
0$!
0'!
1'!
#500000
0#
0"
0y
0w
0x
1J
02!
1,!
#510000
1"
1w
1x
0J
0j!
0J!
0i!
0*!
1;!
0'!
0z
19!
18!
15!
0,!
1Q
0R
0v
1u
1I
0H
0)
1(
1}
1{
16!
0-!
0"!
1~
1%!
1#!
0!!
1&!
#520000
0"
0w
0x
1J
#530000
1"
1w
1x
0J
1j!
1o!
17!
0F!
0H!
0.!
1:!
1'!
05!
1?!
0(!
0&!
1=!
1"!
0~
0D!
03!
0/!
1,!
0Q
0t
0I
0'
06!
1$!
1|
0%!
0#!
1!!
00!
1-!
1&!
0$!
0'!
#540000
0"
0w
0x
1J
#550000
1"
1w
1x
0J
1J!
07!
04!
1H!
1I!
0E!
1f!
1h!
01!
1.!
0;!
1z
09!
0=!
0"!
1~
1<!
0}
0{
1A!
0r
1U
1S
0s
1t
0%
1E
1G
0&
1'
1{
0:!
1%!
1#!
0!!
1"!
0~
0|
1|
0&!
1$!
0%!
0#!
1!!
1'!
1&!
0$!
0'!
#560000
0"
0w
0x
1J
#570000
1"
1w
1x
0J
0j!
0J!
1B!
0h!
1i!
1;!
0z
19!
1Q
1q
0S
1R
1I
1$
0G
1H
0{
1:!
0|
#580000
0"
0w
0x
1J
#590000
1"
1w
1x
0J
1j!
1J!
0I!
0;!
1z
09!
0<!
1}
1{
0Q
0I
0}
0{
0:!
0"!
1~
1|
1"!
0~
0|
1%!
1#!
0!!
0%!
0#!
1!!
0&!
1$!
1&!
0$!
1'!
0'!
#600000
0"
0w
0x
1J
#610000
1"
1w
1x
0J
0j!
0J!
0i!
1;!
0z
19!
1Q
0R
1I
0H
1}
1{
1:!
0"!
1~
1|
1%!
1#!
0!!
0&!
1$!
1'!
#620000
0"
0w
0x
1J
#630000
1"
1w
1x
0J
1j!
1J!
1F!
1G!
0H!
1I!
0;!
1z
09!
0?!
1&!
1>!
0%!
0#!
1=!
1"!
0~
1<!
0}
0{
0Q
0I
1{
0:!
0'!
0&!
0$!
1#!
1!!
1~
0|
1|
1'!
1$!
0!!
#640000
0"
0w
0x
1J
#650000
1"
1w
1x
0J
0j!
0J!
0f!
1g!
1h!
1i!
1;!
0z
19!
1Q
0U
1T
1S
1R
1I
0E
1F
1G
1H
0{
1:!
0|
#660000
0"
0w
0x
1J
#670000
1"
1w
1x
0J
1j!
1J!
0I!
0;!
1z
09!
0<!
1}
1{
0Q
0I
0}
0{
0:!
0~
1|
1~
0|
1!!
0!!
#680000
0"
0w
0x
1J
#690000
1"
1w
1x
0J
0j!
0J!
0i!
1;!
0z
19!
1Q
0R
1I
0H
1}
1{
1:!
0~
1|
1!!
#700000
0"
0w
0x
1J
#710000
1"
1w
1x
0J
1j!
1J!
1H!
1I!
0;!
1z
09!
0=!
0"!
1~
1<!
0}
0{
0Q
0I
1{
0:!
0#!
0!!
1"!
0~
0|
1|
0$!
1#!
1!!
1$!
#720000
0"
0w
0x
1J
#730000
1"
1w
1x
0J
0j!
0J!
0h!
1i!
1;!
0z
19!
1Q
0S
1R
1I
0G
1H
0{
1:!
0|
#740000
0"
0w
0x
1J
#750000
1#
1"
1y
1w
1x
0J
1/!
0,!
10!
0-!
1j!
1J!
0I!
0;!
1z
09!
0<!
1}
1{
0Q
0I
0}
0{
0:!
0"!
1~
1|
1"!
0~
0|
0#!
0!!
1#!
1!!
0$!
1$!
#760000
0"
0w
0x
1J
#770000
1"
1w
1x
0J
0j!
0J!
0i!
11!
0.!
1;!
0z
19!
0A!
0C!
1Q
0R
1s
0t
1I
0H
1&
0'
1}
1{
1:!
0"!
1~
1|
0#!
0!!
0$!
#780000
0"
0w
0x
1J
#790000
1"
1w
1x
0J
1j!
1J!
0G!
0H!
1I!
0B!
0;!
1z
09!
0>!
1%!
1#!
1=!
1"!
0~
1<!
0}
0{
0Q
0q
0I
0$
1{
0:!
1&!
1$!
0%!
0#!
1!!
1~
0|
1|
0'!
0&!
0$!
0!!
1'!
#800000
0"
0w
0x
1J
#810000
1"
1w
1x
0J
0j!
0J!
0g!
1h!
1i!
1;!
0z
19!
1Q
0T
1S
1R
1I
0F
1G
1H
0{
1:!
0|
#820000
0"
0w
0x
1J
#830000
1"
1w
1x
0J
1j!
1J!
0I!
0;!
1z
09!
0<!
1}
1{
0Q
0I
0}
0{
0:!
0~
1|
1~
0|
1!!
0!!
#840000
0"
0w
0x
1J
#850000
1"
1w
1x
0J
0j!
0J!
0i!
1;!
0z
19!
1Q
0R
1I
0H
1}
1{
1:!
0~
1|
1!!
#860000
0"
0w
0x
1J
#870000
1"
1w
1x
0J
1j!
1J!
1H!
1I!
0;!
1z
09!
0=!
0"!
1~
1<!
0}
0{
0Q
0I
1{
0:!
1%!
1#!
0!!
1"!
0~
0|
1|
1&!
1$!
0%!
0#!
1!!
0'!
0&!
0$!
1'!
#880000
0"
0w
0x
1J
#890000
1"
1w
1x
0J
0j!
0J!
0h!
1i!
1;!
0z
19!
1Q
0S
1R
1I
0G
1H
0{
1:!
0|
#900000
0"
0w
0x
1J
#910000
1"
1w
1x
0J
1j!
1J!
0I!
0;!
1z
09!
0<!
1(!
1}
1{
0Q
0I
0}
0{
0:!
1)!
1|
0"!
1~
1"!
0~
0|
1%!
1#!
0!!
0%!
0#!
1!!
1&!
1$!
0&!
0$!
0'!
1'!
#920000
0"
0w
0x
1J
#930000
1"
1w
1x
0J
0j!
0J!
0i!
1*!
1;!
1:!
0z
19!
12!
1Q
0R
1v
0u
1I
0H
1)
0(
1}
1{
13!
1-!
0"!
1~
1%!
1#!
0!!
1&!
#940000
0"
0w
0x
1J
#950000
1"
1w
1x
0J
1j!
1J!
14!
0H!
1.!
0;!
0)!
0'!
1$!
1|
1z
09!
08!
1=!
0(!
1"!
0~
1C!
0Q
1t
0I
1'
0}
0{
0:!
1)!
0%!
0#!
1!!
1D!
1~
0|
0&!
0$!
0!!
1'!
#960000
0"
0w
0x
1J
#970000
1"
1w
1x
0J
0j!
0J!
0o!
1E!
1h!
1;!
0z
19!
1Q
1r
1S
1I
1%
1G
1}
1{
1:!
0~
1|
1!!
#980000
0"
0w
0x
1J
#990000
1"
1w
1x
0J
1j!
1J!
1H!
1I!
0;!
1z
09!
0=!
0"!
1~
1<!
0}
0{
0Q
0I
1{
0:!
1%!
1#!
0!!
1"!
0~
0|
1|
1&!
1$!
0%!
0#!
1!!
0'!
0&!
0$!
1'!
