projeto_final/simulation/qsim/projeto_final.msim.vcd
$comment
	File created using the following command:
		vcd file projeto_final.msim.vcd -direction
$end
$date
	Sun Dec 04 01:23:00 2022
$end
$version
	ModelSim Version 10.1d
$end
$timescale
	1ps
$end
$scope module projeto_final_vlg_vec_tst $end
$var reg 1 ! clk $end
$var reg 1 " N $end
$var wire 1 # b1 $end
$var wire 1 $ b2 $end
$var wire 1 % c0 $end
$var wire 1 & c1 $end
$var wire 1 ' sampler $end
$scope module i1 $end
$var wire 1 ( gnd $end
$var wire 1 ) vcc $end
$var wire 1 * unknown $end
$var tri1 1 + devclrn $end
$var tri1 1 , devpor $end
$var tri1 1 - devoe $end
$var wire 1 . b1~output_o $end
$var wire 1 / b2~output_o $end
$var wire 1 0 c0~output_o $end
$var wire 1 1 c1~output_o $end
$var wire 1 2 clk~input_o $end
$var wire 1 3 clk~inputclkctrl_outclk $end
$var wire 1 4 N~input_o $end
$var wire 1 5 inst_control|n1~0_combout $end
$var wire 1 6 inst_control|n1~q $end
$var wire 1 7 inst_control|n0~0_combout $end
$var wire 1 8 inst_control|n0~q $end
$var wire 1 9 inst_control|b1~1_combout $end
$var wire 1 : inst_control|b1~0_combout $end
$var wire 1 ; inst_control|b1~q $end
$var wire 1 < inst_control|b2~0_combout $end
$var wire 1 = inst_control|b2~q $end
$upscope $end
$upscope $end
$enddefinitions $end
#0
$dumpvars
0!
0"
0#
0$
0%
0&
x'
0(
1)
x*
1+
1,
1-
0.
0/
00
01
02
03
04
15
06
07
08
19
0:
0;
0<
0=
$end
#15000
1!
12
13
0'
16
1:
11
1&
#30000
0!
02
03
1'
#45000
1!
12
13
0'
1;
1.
1#
#60000
0!
02
03
1'
#75000
1!
12
13
0'
#90000
0!
02
03
1'
#105000
1!
12
13
0'
#120000
0!
02
03
1'
#135000
1!
12
13
0'
#150000
0!
02
03
1'
#165000
1!
12
13
0'
#180000
0!
02
03
1'
#195000
1!
12
13
0'
#210000
0!
02
03
1'
#225000
1!
12
13
0'
#240000
0!
02
03
1'
#250000
1"
14
0'
17
05
#255000
1!
12
13
1'
18
06
09
15
10
01
1%
0&
#270000
0!
02
03
0'
#285000
1!
12
13
1'
0;
16
1<
05
0.
11
0#
1&
#300000
0!
02
03
0'
#315000
1!
12
13
1'
1=
06
0<
15
1/
01
1$
0&
#330000
0!
02
03
0'
#345000
1!
12
13
1'
0=
16
1<
05
0/
11
0$
1&
#360000
0!
02
03
0'
#375000
1!
12
13
1'
1=
06
0<
15
1/
01
1$
0&
#390000
0!
02
03
0'
#405000
1!
12
13
1'
0=
16
1<
05
0/
11
0$
1&
#420000
0!
02
03
0'
#435000
1!
12
13
1'
1=
06
0<
15
1/
01
1$
0&
#450000
0!
02
03
0'
#465000
1!
12
13
1'
0=
16
1<
05
0/
11
0$
1&
#480000
0!
02
03
0'
#495000
1!
12
13
1'
1=
06
0<
15
1/
01
1$
0&
#500000
0"
04
0'
05
#510000
0!
02
03
1'
#525000
1!
12
13
0'
0=
0/
0$
#540000
0!
02
03
1'
#555000
1!
12
13
0'
#570000
0!
02
03
1'
#585000
1!
12
13
0'
#600000
0!
02
03
1'
#615000
1!
12
13
0'
#630000
0!
02
03
1'
#645000
1!
12
13
0'
#660000
0!
02
03
1'
#675000
1!
12
13
0'
#690000
0!
02
03
1'
#705000
1!
12
13
0'
#720000
0!
02
03
1'
#735000
1!
12
13
0'
#750000
1"
0!
14
02
03
1'
15
#765000
1!
12
13
0'
16
1<
05
11
1&
#780000
0!
02
03
1'
#795000
1!
12
13
0'
1=
06
0<
15
1/
01
1$
0&
#810000
0!
02
03
1'
#825000
1!
12
13
0'
0=
16
1<
05
0/
11
0$
1&
#840000
0!
02
03
1'
#855000
1!
12
13
0'
1=
06
0<
15
1/
01
1$
0&
#870000
0!
02
03
1'
#885000
1!
12
13
0'
0=
16
1<
05
0/
11
0$
1&
#900000
0!
02
03
1'
#915000
1!
12
13
0'
1=
06
0<
15
1/
01
1$
0&
#930000
0!
02
03
1'
#945000
1!
12
13
0'
0=
16
1<
05
0/
11
0$
1&
#960000
0!
02
03
1'
#975000
1!
12
13
0'
1=
06
0<
15
1/
01
1$
0&
#990000
0!
02
03
1'
