relatorio/simulation/qsim/relatorio.msim.vcd
$comment
	File created using the following command:
		vcd file relatorio.msim.vcd -direction
$end
$date
	Fri Sep 09 12:11:51 2022
$end
$version
	ModelSim Version 10.1d
$end
$timescale
	1ps
$end
$scope module relatorio_vlg_vec_tst $end
$var reg 1 ! a $end
$var reg 1 " b $end
$var reg 1 # c $end
$var wire 1 $ a311 $end
$var wire 1 % a312 $end
$var wire 1 & a321 $end
$var wire 1 ' a322 $end
$var wire 1 ( c211 $end
$var wire 1 ) c212 $end
$var wire 1 * c221 $end
$var wire 1 + c222 $end
$var wire 1 , d411 $end
$var wire 1 - d412 $end
$var wire 1 . d421 $end
$var wire 1 / d422 $end
$var wire 1 0 id1 $end
$var wire 1 1 id2 $end
$var wire 1 2 id3 $end
$var wire 1 3 q1 $end
$var wire 1 4 q2 $end
$var wire 1 5 ra31 $end
$var wire 1 6 ra32 $end
$var wire 1 7 rc21 $end
$var wire 1 8 rc22 $end
$var wire 1 9 rid1 $end
$var wire 1 : rid2 $end
$var wire 1 ; rid3 $end
$var wire 1 < sampler $end
$scope module i1 $end
$var wire 1 = gnd $end
$var wire 1 > vcc $end
$var wire 1 ? unknown $end
$var tri1 1 @ devclrn $end
$var tri1 1 A devpor $end
$var tri1 1 B devoe $end
$var wire 1 C q1~output_o $end
$var wire 1 D q2~output_o $end
$var wire 1 E id1~output_o $end
$var wire 1 F id2~output_o $end
$var wire 1 G id3~output_o $end
$var wire 1 H rid1~output_o $end
$var wire 1 I rid2~output_o $end
$var wire 1 J rid3~output_o $end
$var wire 1 K c211~output_o $end
$var wire 1 L c212~output_o $end
$var wire 1 M c221~output_o $end
$var wire 1 N c222~output_o $end
$var wire 1 O rc21~output_o $end
$var wire 1 P rc22~output_o $end
$var wire 1 Q a311~output_o $end
$var wire 1 R a312~output_o $end
$var wire 1 S a321~output_o $end
$var wire 1 T a322~output_o $end
$var wire 1 U ra31~output_o $end
$var wire 1 V ra32~output_o $end
$var wire 1 W d411~output_o $end
$var wire 1 X d412~output_o $end
$var wire 1 Y d421~output_o $end
$var wire 1 Z d422~output_o $end
$var wire 1 [ a~input_o $end
$var wire 1 \ b~input_o $end
$var wire 1 ] q2~0_combout $end
$var wire 1 ^ c211~0_combout $end
$var wire 1 _ c~input_o $end
$var wire 1 ` a311~0_combout $end
$var wire 1 a a322~0_combout $end
$var wire 1 b d411~0_combout $end
$var wire 1 c d421~0_combout $end
$upscope $end
$upscope $end
$enddefinitions $end
#0
$dumpvars
0!
0"
1#
1$
1%
0&
0'
0(
0)
0*
0+
0,
0-
0.
0/
00
01
02
03
04
15
16
17
18
19
1:
1;
x<
0=
1>
x?
1@
1A
1B
0C
0D
0E
0F
0G
1H
1I
1J
0K
0L
0M
0N
1O
1P
1Q
1R
0S
0T
1U
1V
0W
0X
0Y
0Z
0[
0\
0]
1^
1_
0`
0a
0b
0c
$end
#5000
1!
1"
1\
0<
1[
0^
1G
1F
1E
1C
12
11
10
13
1c
1b
1a
1]
1K
1L
1Z
1Y
1X
1W
1T
1S
1N
1M
1D
1(
1)
1/
1.
1-
1,
1'
1&
1+
1*
14
#15000
0#
0_
1<
0a
0T
0S
0'
0&
#25000
0!
0"
1#
0\
1_
0<
0[
1^
0G
0F
0E
0C
02
01
00
03
0c
0b
0]
0K
0L
0Z
0Y
0X
0W
0N
0M
0D
0(
0)
0/
0.
0-
0,
0+
0*
04
#30000
1!
1"
0#
1\
0_
1<
1[
0^
1G
1F
1E
1C
12
11
10
13
1c
1b
1]
1K
1L
1Z
1Y
1X
1W
1N
1M
1D
1(
1)
1/
1.
1-
1,
1+
1*
14
#35000
1#
1_
0<
1a
1T
1S
1'
1&
#45000
0#
0_
1<
0a
0T
0S
0'
0&
#50000
0!
0"
0\
0<
0[
1`
1^
0G
0F
0E
0C
02
01
00
03
0c
0b
0]
0Q
0R
0K
0L
0Z
0Y
0X
0W
0N
0M
0D
0$
0%
0(
0)
0/
0.
0-
0,
0+
0*
04
#55000
1#
1_
1<
0`
1Q
1R
1$
1%
#60000
0#
0_
0<
1`
0Q
0R
0$
0%
#65000
1#
1_
1<
0`
1Q
1R
1$
1%
#70000
0#
0_
0<
1`
0Q
0R
0$
0%
#75000
1#
1_
1<
0`
1Q
1R
1$
1%
#80000
0#
0_
0<
1`
0Q
0R
0$
0%
#85000
1#
1_
1<
0`
1Q
1R
1$
1%
#90000
1!
1"
0#
1\
0_
0<
1[
0^
1G
1F
1E
1C
12
11
10
13
1c
1b
1]
1K
1L
1Z
1Y
1X
1W
1N
1M
1D
1(
1)
1/
1.
1-
1,
1+
1*
14
#95000
0!
0"
0\
1<
0[
1`
1^
0G
0F
0E
0C
02
01
00
03
0c
0b
0]
0Q
0R
0K
0L
0Z
0Y
0X
0W
0N
0M
0D
0$
0%
0(
0)
0/
0.
0-
0,
0+
0*
04
#100000
1#
1_
0<
0`
1Q
1R
1$
1%
#110000
1!
1"
0#
1\
0_
1<
1[
0^
1G
1F
1E
1C
12
11
10
13
1c
1b
1]
1K
1L
1Z
1Y
1X
1W
1N
1M
1D
1(
1)
1/
1.
1-
1,
1+
1*
14
#115000
0!
0"
1#
0\
1_
0<
0[
1^
0G
0F
0E
0C
02
01
00
03
0c
0b
0]
0K
0L
0Z
0Y
0X
0W
0N
0M
0D
0(
0)
0/
0.
0-
0,
0+
0*
04
#120000
0#
0_
1<
1`
0Q
0R
0$
0%
#125000
1#
1_
0<
0`
1Q
1R
1$
1%
#130000
1!
1"
0#
1\
0_
1<
1[
0^
1G
1F
1E
1C
12
11
10
13
1c
1b
1]
1K
1L
1Z
1Y
1X
1W
1N
1M
1D
1(
1)
1/
1.
1-
1,
1+
1*
14
#135000
0!
0"
1#
0\
1_
0<
0[
1^
0G
0F
0E
0C
02
01
00
03
0c
0b
0]
0K
0L
0Z
0Y
0X
0W
0N
0M
0D
0(
0)
0/
0.
0-
0,
0+
0*
04
#140000
1!
1"
1\
1<
1[
0^
1G
1F
1E
1C
12
11
10
13
1c
1b
1a
1]
1K
1L
1Z
1Y
1X
1W
1T
1S
1N
1M
1D
1(
1)
1/
1.
1-
1,
1'
1&
1+
1*
14
#155000
0!
0"
0\
0<
0[
1^
0G
0F
0E
0C
02
01
00
03
0c
0b
0a
0]
0K
0L
0Z
0Y
0X
0W
0T
0S
0N
0M
0D
0(
0)
0/
0.
0-
0,
0'
0&
0+
0*
04
#160000
0#
0_
1<
1`
0Q
0R
0$
0%
#165000
1#
1_
0<
0`
1Q
1R
1$
1%
#175000
1!
1"
1\
1<
1[
0^
1G
1F
1E
1C
12
11
10
13
1c
1b
1a
1]
1K
1L
1Z
1Y
1X
1W
1T
1S
1N
1M
1D
1(
1)
1/
1.
1-
1,
1'
1&
1+
1*
14
#180000
0#
0!
0"
0_
0\
0<
0[
1`
1^
0G
0F
0E
0C
02
01
00
03
0c
0b
0a
0]
0Q
0R
0K
0L
0Z
0Y
0X
0W
0T
0S
0N
0M
0D
0$
0%
0(
0)
0/
0.
0-
0,
0'
0&
0+
0*
04
#195000
1!
1"
1\
1<
1[
0`
0^
1G
1F
1E
1C
12
11
10
13
1c
1b
1]
1Q
1R
1K
1L
1Z
1Y
1X
1W
1N
1M
1D
1$
1%
1(
1)
1/
1.
1-
1,
1+
1*
14
#200000
0!
0"
0\
0<
0[
1`
1^
0G
0F
0E
0C
02
01
00
03
0c
0b
0]
0Q
0R
0K
0L
0Z
0Y
0X
0W
0N
0M
0D
0$
0%
0(
0)
0/
0.
0-
0,
0+
0*
04
#205000
1#
1!
1"
1_
1\
1<
1[
0`
0^
1G
1F
1E
1C
12
11
10
13
1c
1b
1a
1]
1Q
1R
1K
1L
1Z
1Y
1X
1W
1T
1S
1N
1M
1D
1$
1%
1(
1)
1/
1.
1-
1,
1'
1&
1+
1*
14
#210000
0#
0!
0"
0_
0\
0<
0[
1`
1^
0G
0F
0E
0C
02
01
00
03
0c
0b
0a
0]
0Q
0R
0K
0L
0Z
0Y
0X
0W
0T
0S
0N
0M
0D
0$
0%
0(
0)
0/
0.
0-
0,
0'
0&
0+
0*
04
#230000
1!
1"
1\
1<
1[
0`
0^
1G
1F
1E
1C
12
11
10
13
1c
1b
1]
1Q
1R
1K
1L
1Z
1Y
1X
1W
1N
1M
1D
1$
1%
1(
1)
1/
1.
1-
1,
1+
1*
14
#235000
0!
0"
0\
0<
0[
1`
1^
0G
0F
0E
0C
02
01
00
03
0c
0b
0]
0Q
0R
0K
0L
0Z
0Y
0X
0W
0N
0M
0D
0$
0%
0(
0)
0/
0.
0-
0,
0+
0*
04
#240000
1#
1!
1"
1_
1\
1<
1[
0`
0^
1G
1F
1E
1C
12
11
10
13
1c
1b
1a
1]
1Q
1R
1K
1L
1Z
1Y
1X
1W
1T
1S
1N
1M
1D
1$
1%
1(
1)
1/
1.
1-
1,
1'
1&
1+
1*
14
#245000
0#
0_
0<
0a
0T
0S
0'
0&
#250000
0!
0"
0\
1<
0[
1`
1^
0G
0F
0E
0C
02
01
00
03
0c
0b
0]
0Q
0R
0K
0L
0Z
0Y
0X
0W
0N
0M
0D
0$
0%
0(
0)
0/
0.
0-
0,
0+
0*
04
#255000
1!
1"
1\
0<
1[
0`
0^
1G
1F
1E
1C
12
11
10
13
1c
1b
1]
1Q
1R
1K
1L
1Z
1Y
1X
1W
1N
1M
1D
1$
1%
1(
1)
1/
1.
1-
1,
1+
1*
14
#265000
1#
0!
0"
1_
0\
1<
0[
1^
0G
0F
0E
0C
02
01
00
03
0c
0b
0]
0K
0L
0Z
0Y
0X
0W
0N
0M
0D
0(
0)
0/
0.
0-
0,
0+
0*
04
#270000
0#
1!
1"
0_
1\
0<
1[
0^
1G
1F
1E
1C
12
11
10
13
1c
1b
1]
1K
1L
1Z
1Y
1X
1W
1N
1M
1D
1(
1)
1/
1.
1-
1,
1+
1*
14
#275000
0!
0"
0\
1<
0[
1`
1^
0G
0F
0E
0C
02
01
00
03
0c
0b
0]
0Q
0R
0K
0L
0Z
0Y
0X
0W
0N
0M
0D
0$
0%
0(
0)
0/
0.
0-
0,
0+
0*
04
#280000
1#
1_
0<
0`
1Q
1R
1$
1%
#300000
0#
0_
1<
1`
0Q
0R
0$
0%
#305000
1!
1"
1\
0<
1[
0`
0^
1G
1F
1E
1C
12
11
10
13
1c
1b
1]
1Q
1R
1K
1L
1Z
1Y
1X
1W
1N
1M
1D
1$
1%
1(
1)
1/
1.
1-
1,
1+
1*
14
#310000
1#
1_
1<
1a
1T
1S
1'
1&
#315000
0!
0"
0\
0<
0[
1^
0G
0F
0E
0C
02
01
00
03
0c
0b
0a
0]
0K
0L
0Z
0Y
0X
0W
0T
0S
0N
0M
0D
0(
0)
0/
0.
0-
0,
0'
0&
0+
0*
04
#320000
0#
1!
1"
0_
1\
1<
1[
0^
1G
1F
1E
1C
12
11
10
13
1c
1b
1]
1K
1L
1Z
1Y
1X
1W
1N
1M
1D
1(
1)
1/
1.
1-
1,
1+
1*
14
#325000
1#
0!
0"
1_
0\
0<
0[
1^
0G
0F
0E
0C
02
01
00
03
0c
0b
0]
0K
0L
0Z
0Y
0X
0W
0N
0M
0D
0(
0)
0/
0.
0-
0,
0+
0*
04
#330000
0#
1!
1"
0_
1\
1<
1[
0^
1G
1F
1E
1C
12
11
10
13
1c
1b
1]
1K
1L
1Z
1Y
1X
1W
1N
1M
1D
1(
1)
1/
1.
1-
1,
1+
1*
14
#335000
0!
0"
0\
0<
0[
1`
1^
0G
0F
0E
0C
02
01
00
03
0c
0b
0]
0Q
0R
0K
0L
0Z
0Y
0X
0W
0N
0M
0D
0$
0%
0(
0)
0/
0.
0-
0,
0+
0*
04
#340000
1#
1_
1<
0`
1Q
1R
1$
1%
#345000
1!
1"
0#
1\
0_
0<
1[
0^
1G
1F
1E
1C
12
11
10
13
1c
1b
1]
1K
1L
1Z
1Y
1X
1W
1N
1M
1D
1(
1)
1/
1.
1-
1,
1+
1*
14
#350000
1#
1_
1<
1a
1T
1S
1'
1&
#360000
0#
0_
0<
0a
0T
0S
0'
0&
#365000
1#
1_
1<
1a
1T
1S
1'
1&
#370000
0!
0"
0#
0\
0_
0<
0[
1`
1^
0G
0F
0E
0C
02
01
00
03
0c
0b
0a
0]
0Q
0R
0K
0L
0Z
0Y
0X
0W
0T
0S
0N
0M
0D
0$
0%
0(
0)
0/
0.
0-
0,
0'
0&
0+
0*
04
#375000
1#
1_
1<
0`
1Q
1R
1$
1%
#380000
1!
1"
1\
0<
1[
0^
1G
1F
1E
1C
12
11
10
13
1c
1b
1a
1]
1K
1L
1Z
1Y
1X
1W
1T
1S
1N
1M
1D
1(
1)
1/
1.
1-
1,
1'
1&
1+
1*
14
#385000
0!
0"
0\
1<
0[
1^
0G
0F
0E
0C
02
01
00
03
0c
0b
0a
0]
0K
0L
0Z
0Y
0X
0W
0T
0S
0N
0M
0D
0(
0)
0/
0.
0-
0,
0'
0&
0+
0*
04
#390000
0#
1!
1"
0_
1\
0<
1[
0^
1G
1F
1E
1C
12
11
10
13
1c
1b
1]
1K
1L
1Z
1Y
1X
1W
1N
1M
1D
1(
1)
1/
1.
1-
1,
1+
1*
14
#400000
0!
0"
0\
1<
0[
1`
1^
0G
0F
0E
0C
02
01
00
03
0c
0b
0]
0Q
0R
0K
0L
0Z
0Y
0X
0W
0N
0M
0D
0$
0%
0(
0)
0/
0.
0-
0,
0+
0*
04
#405000
1#
1_
0<
0`
1Q
1R
1$
1%
#410000
1!
1"
0#
1\
0_
1<
1[
0^
1G
1F
1E
1C
12
11
10
13
1c
1b
1]
1K
1L
1Z
1Y
1X
1W
1N
1M
1D
1(
1)
1/
1.
1-
1,
1+
1*
14
#425000
1#
1_
0<
1a
1T
1S
1'
1&
#430000
0!
0"
0#
0\
0_
1<
0[
1`
1^
0G
0F
0E
0C
02
01
00
03
0c
0b
0a
0]
0Q
0R
0K
0L
0Z
0Y
0X
0W
0T
0S
0N
0M
0D
0$
0%
0(
0)
0/
0.
0-
0,
0'
0&
0+
0*
04
#435000
1!
1"
1#
1\
1_
0<
1[
0`
0^
1G
1F
1E
1C
12
11
10
13
1c
1b
1a
1]
1Q
1R
1K
1L
1Z
1Y
1X
1W
1T
1S
1N
1M
1D
1$
1%
1(
1)
1/
1.
1-
1,
1'
1&
1+
1*
14
#440000
0!
0"
0\
1<
0[
1^
0G
0F
0E
0C
02
01
00
03
0c
0b
0a
0]
0K
0L
0Z
0Y
0X
0W
0T
0S
0N
0M
0D
0(
0)
0/
0.
0-
0,
0'
0&
0+
0*
04
#445000
0#
0_
0<
1`
0Q
0R
0$
0%
#450000
1!
1"
1\
1<
1[
0`
0^
1G
1F
1E
1C
12
11
10
13
1c
1b
1]
1Q
1R
1K
1L
1Z
1Y
1X
1W
1N
1M
1D
1$
1%
1(
1)
1/
1.
1-
1,
1+
1*
14
#455000
1#
1_
0<
1a
1T
1S
1'
1&
#460000
0#
0_
1<
0a
0T
0S
0'
0&
#465000
0!
0"
1#
0\
1_
0<
0[
1^
0G
0F
0E
0C
02
01
00
03
0c
0b
0]
0K
0L
0Z
0Y
0X
0W
0N
0M
0D
0(
0)
0/
0.
0-
0,
0+
0*
04
#470000
1!
1"
0#
1\
0_
1<
1[
0^
1G
1F
1E
1C
12
11
10
13
1c
1b
1]
1K
1L
1Z
1Y
1X
1W
1N
1M
1D
1(
1)
1/
1.
1-
1,
1+
1*
14
#485000
1#
1_
0<
1a
1T
1S
1'
1&
#490000
0!
0"
0\
1<
0[
1^
0G
0F
0E
0C
02
01
00
03
0c
0b
0a
0]
0K
0L
0Z
0Y
0X
0W
0T
0S
0N
0M
0D
0(
0)
0/
0.
0-
0,
0'
0&
0+
0*
04
#495000
0#
1!
1"
0_
1\
0<
1[
0^
1G
1F
1E
1C
12
11
10
13
1c
1b
1]
1K
1L
1Z
1Y
1X
1W
1N
1M
1D
1(
1)
1/
1.
1-
1,
1+
1*
14
#500000
0!
0"
0\
1<
0[
1`
1^
0G
0F
0E
0C
02
01
00
03
0c
0b
0]
0Q
0R
0K
0L
0Z
0Y
0X
0W
0N
0M
0D
0$
0%
0(
0)
0/
0.
0-
0,
0+
0*
04
#510000
1!
1"
1\
0<
1[
0`
0^
1G
1F
1E
1C
12
11
10
13
1c
1b
1]
1Q
1R
1K
1L
1Z
1Y
1X
1W
1N
1M
1D
1$
1%
1(
1)
1/
1.
1-
1,
1+
1*
14
#515000
0!
0"
0\
1<
0[
1`
1^
0G
0F
0E
0C
02
01
00
03
0c
0b
0]
0Q
0R
0K
0L
0Z
0Y
0X
0W
0N
0M
0D
0$
0%
0(
0)
0/
0.
0-
0,
0+
0*
04
#520000
1!
1"
1\
0<
1[
0`
0^
1G
1F
1E
1C
12
11
10
13
1c
1b
1]
1Q
1R
1K
1L
1Z
1Y
1X
1W
1N
1M
1D
1$
1%
1(
1)
1/
1.
1-
1,
1+
1*
14
#525000
1#
0!
0"
1_
0\
1<
0[
1^
0G
0F
0E
0C
02
01
00
03
0c
0b
0]
0K
0L
0Z
0Y
0X
0W
0N
0M
0D
0(
0)
0/
0.
0-
0,
0+
0*
04
#530000
0#
1!
1"
0_
1\
0<
1[
0^
1G
1F
1E
1C
12
11
10
13
1c
1b
1]
1K
1L
1Z
1Y
1X
1W
1N
1M
1D
1(
1)
1/
1.
1-
1,
1+
1*
14
#540000
1#
1_
1<
1a
1T
1S
1'
1&
#545000
0!
0"
0#
0\
0_
0<
0[
1`
1^
0G
0F
0E
0C
02
01
00
03
0c
0b
0a
0]
0Q
0R
0K
0L
0Z
0Y
0X
0W
0T
0S
0N
0M
0D
0$
0%
0(
0)
0/
0.
0-
0,
0'
0&
0+
0*
04
#555000
1#
1_
1<
0`
1Q
1R
1$
1%
#560000
1!
1"
1\
0<
1[
0^
1G
1F
1E
1C
12
11
10
13
1c
1b
1a
1]
1K
1L
1Z
1Y
1X
1W
1T
1S
1N
1M
1D
1(
1)
1/
1.
1-
1,
1'
1&
1+
1*
14
#565000
0!
0"
0\
1<
0[
1^
0G
0F
0E
0C
02
01
00
03
0c
0b
0a
0]
0K
0L
0Z
0Y
0X
0W
0T
0S
0N
0M
0D
0(
0)
0/
0.
0-
0,
0'
0&
0+
0*
04
#570000
1!
1"
1\
0<
1[
0^
1G
1F
1E
1C
12
11
10
13
1c
1b
1a
1]
1K
1L
1Z
1Y
1X
1W
1T
1S
1N
1M
1D
1(
1)
1/
1.
1-
1,
1'
1&
1+
1*
14
#575000
0#
0!
0"
0_
0\
1<
0[
1`
1^
0G
0F
0E
0C
02
01
00
03
0c
0b
0a
0]
0Q
0R
0K
0L
0Z
0Y
0X
0W
0T
0S
0N
0M
0D
0$
0%
0(
0)
0/
0.
0-
0,
0'
0&
0+
0*
04
#580000
1#
1!
1"
1_
1\
0<
1[
0`
0^
1G
1F
1E
1C
12
11
10
13
1c
1b
1a
1]
1Q
1R
1K
1L
1Z
1Y
1X
1W
1T
1S
1N
1M
1D
1$
1%
1(
1)
1/
1.
1-
1,
1'
1&
1+
1*
14
#590000
0#
0!
0"
0_
0\
1<
0[
1`
1^
0G
0F
0E
0C
02
01
00
03
0c
0b
0a
0]
0Q
0R
0K
0L
0Z
0Y
0X
0W
0T
0S
0N
0M
0D
0$
0%
0(
0)
0/
0.
0-
0,
0'
0&
0+
0*
04
#595000
1!
1"
1\
0<
1[
0`
0^
1G
1F
1E
1C
12
11
10
13
1c
1b
1]
1Q
1R
1K
1L
1Z
1Y
1X
1W
1N
1M
1D
1$
1%
1(
1)
1/
1.
1-
1,
1+
1*
14
#600000
1#
1_
1<
1a
1T
1S
1'
1&
#605000
0!
0"
0\
0<
0[
1^
0G
0F
0E
0C
02
01
00
03
0c
0b
0a
0]
0K
0L
0Z
0Y
0X
0W
0T
0S
0N
0M
0D
0(
0)
0/
0.
0-
0,
0'
0&
0+
0*
04
#610000
0#
1!
1"
0_
1\
1<
1[
0^
1G
1F
1E
1C
12
11
10
13
1c
1b
1]
1K
1L
1Z
1Y
1X
1W
1N
1M
1D
1(
1)
1/
1.
1-
1,
1+
1*
14
#620000
0!
0"
0\
0<
0[
1`
1^
0G
0F
0E
0C
02
01
00
03
0c
0b
0]
0Q
0R
0K
0L
0Z
0Y
0X
0W
0N
0M
0D
0$
0%
0(
0)
0/
0.
0-
0,
0+
0*
04
#625000
1#
1!
1"
1_
1\
1<
1[
0`
0^
1G
1F
1E
1C
12
11
10
13
1c
1b
1a
1]
1Q
1R
1K
1L
1Z
1Y
1X
1W
1T
1S
1N
1M
1D
1$
1%
1(
1)
1/
1.
1-
1,
1'
1&
1+
1*
14
#630000
0#
0!
0"
0_
0\
0<
0[
1`
1^
0G
0F
0E
0C
02
01
00
03
0c
0b
0a
0]
0Q
0R
0K
0L
0Z
0Y
0X
0W
0T
0S
0N
0M
0D
0$
0%
0(
0)
0/
0.
0-
0,
0'
0&
0+
0*
04
#655000
1!
1"
1\
1<
1[
0`
0^
1G
1F
1E
1C
12
11
10
13
1c
1b
1]
1Q
1R
1K
1L
1Z
1Y
1X
1W
1N
1M
1D
1$
1%
1(
1)
1/
1.
1-
1,
1+
1*
14
#670000
1#
0!
0"
1_
0\
0<
0[
1^
0G
0F
0E
0C
02
01
00
03
0c
0b
0]
0K
0L
0Z
0Y
0X
0W
0N
0M
0D
0(
0)
0/
0.
0-
0,
0+
0*
04
#675000
0#
1!
1"
0_
1\
1<
1[
0^
1G
1F
1E
1C
12
11
10
13
1c
1b
1]
1K
1L
1Z
1Y
1X
1W
1N
1M
1D
1(
1)
1/
1.
1-
1,
1+
1*
14
#685000
1#
0!
0"
1_
0\
0<
0[
1^
0G
0F
0E
0C
02
01
00
03
0c
0b
0]
0K
0L
0Z
0Y
0X
0W
0N
0M
0D
0(
0)
0/
0.
0-
0,
0+
0*
04
#695000
0#
1!
1"
0_
1\
1<
1[
0^
1G
1F
1E
1C
12
11
10
13
1c
1b
1]
1K
1L
1Z
1Y
1X
1W
1N
1M
1D
1(
1)
1/
1.
1-
1,
1+
1*
14
#705000
0!
0"
0\
0<
0[
1`
1^
0G
0F
0E
0C
02
01
00
03
0c
0b
0]
0Q
0R
0K
0L
0Z
0Y
0X
0W
0N
0M
0D
0$
0%
0(
0)
0/
0.
0-
0,
0+
0*
04
#710000
1!
1"
1\
1<
1[
0`
0^
1G
1F
1E
1C
12
11
10
13
1c
1b
1]
1Q
1R
1K
1L
1Z
1Y
1X
1W
1N
1M
1D
1$
1%
1(
1)
1/
1.
1-
1,
1+
1*
14
#715000
1#
1_
0<
1a
1T
1S
1'
1&
#720000
0!
0"
0#
0\
0_
1<
0[
1`
1^
0G
0F
0E
0C
02
01
00
03
0c
0b
0a
0]
0Q
0R
0K
0L
0Z
0Y
0X
0W
0T
0S
0N
0M
0D
0$
0%
0(
0)
0/
0.
0-
0,
0'
0&
0+
0*
04
#725000
1!
1"
1#
1\
1_
0<
1[
0`
0^
1G
1F
1E
1C
12
11
10
13
1c
1b
1a
1]
1Q
1R
1K
1L
1Z
1Y
1X
1W
1T
1S
1N
1M
1D
1$
1%
1(
1)
1/
1.
1-
1,
1'
1&
1+
1*
14
#740000
0!
0"
0\
1<
0[
1^
0G
0F
0E
0C
02
01
00
03
0c
0b
0a
0]
0K
0L
0Z
0Y
0X
0W
0T
0S
0N
0M
0D
0(
0)
0/
0.
0-
0,
0'
0&
0+
0*
04
#745000
0#
0_
0<
1`
0Q
0R
0$
0%
#755000
1!
1"
1#
1\
1_
1<
1[
0`
0^
1G
1F
1E
1C
12
11
10
13
1c
1b
1a
1]
1Q
1R
1K
1L
1Z
1Y
1X
1W
1T
1S
1N
1M
1D
1$
1%
1(
1)
1/
1.
1-
1,
1'
1&
1+
1*
14
#765000
0!
0"
0\
0<
0[
1^
0G
0F
0E
0C
02
01
00
03
0c
0b
0a
0]
0K
0L
0Z
0Y
0X
0W
0T
0S
0N
0M
0D
0(
0)
0/
0.
0-
0,
0'
0&
0+
0*
04
#770000
0#
0_
1<
1`
0Q
0R
0$
0%
#775000
1!
1"
1#
1\
1_
0<
1[
0`
0^
1G
1F
1E
1C
12
11
10
13
1c
1b
1a
1]
1Q
1R
1K
1L
1Z
1Y
1X
1W
1T
1S
1N
1M
1D
1$
1%
1(
1)
1/
1.
1-
1,
1'
1&
1+
1*
14
#780000
0!
0"
0\
1<
0[
1^
0G
0F
0E
0C
02
01
00
03
0c
0b
0a
0]
0K
0L
0Z
0Y
0X
0W
0T
0S
0N
0M
0D
0(
0)
0/
0.
0-
0,
0'
0&
0+
0*
04
#785000
0#
1!
1"
0_
1\
0<
1[
0^
1G
1F
1E
1C
12
11
10
13
1c
1b
1]
1K
1L
1Z
1Y
1X
1W
1N
1M
1D
1(
1)
1/
1.
1-
1,
1+
1*
14
#795000
1#
0!
0"
1_
0\
1<
0[
1^
0G
0F
0E
0C
02
01
00
03
0c
0b
0]
0K
0L
0Z
0Y
0X
0W
0N
0M
0D
0(
0)
0/
0.
0-
0,
0+
0*
04
#805000
0#
0_
0<
1`
0Q
0R
0$
0%
#810000
1#
1_
1<
0`
1Q
1R
1$
1%
#815000
0#
0_
0<
1`
0Q
0R
0$
0%
#820000
1!
1"
1\
1<
1[
0`
0^
1G
1F
1E
1C
12
11
10
13
1c
1b
1]
1Q
1R
1K
1L
1Z
1Y
1X
1W
1N
1M
1D
1$
1%
1(
1)
1/
1.
1-
1,
1+
1*
14
#825000
1#
0!
0"
1_
0\
0<
0[
1^
0G
0F
0E
0C
02
01
00
03
0c
0b
0]
0K
0L
0Z
0Y
0X
0W
0N
0M
0D
0(
0)
0/
0.
0-
0,
0+
0*
04
#840000
0#
0_
1<
1`
0Q
0R
0$
0%
#845000
1!
1"
1\
0<
1[
0`
0^
1G
1F
1E
1C
12
11
10
13
1c
1b
1]
1Q
1R
1K
1L
1Z
1Y
1X
1W
1N
1M
1D
1$
1%
1(
1)
1/
1.
1-
1,
1+
1*
14
#850000
0!
0"
0\
1<
0[
1`
1^
0G
0F
0E
0C
02
01
00
03
0c
0b
0]
0Q
0R
0K
0L
0Z
0Y
0X
0W
0N
0M
0D
0$
0%
0(
0)
0/
0.
0-
0,
0+
0*
04
#855000
1#
1_
0<
0`
1Q
1R
1$
1%
#860000
1!
1"
1\
1<
1[
0^
1G
1F
1E
1C
12
11
10
13
1c
1b
1a
1]
1K
1L
1Z
1Y
1X
1W
1T
1S
1N
1M
1D
1(
1)
1/
1.
1-
1,
1'
1&
1+
1*
14
#865000
0#
0!
0"
0_
0\
0<
0[
1`
1^
0G
0F
0E
0C
02
01
00
03
0c
0b
0a
0]
0Q
0R
0K
0L
0Z
0Y
0X
0W
0T
0S
0N
0M
0D
0$
0%
0(
0)
0/
0.
0-
0,
0'
0&
0+
0*
04
#870000
1#
1_
1<
0`
1Q
1R
1$
1%
#875000
1!
1"
0#
1\
0_
0<
1[
0^
1G
1F
1E
1C
12
11
10
13
1c
1b
1]
1K
1L
1Z
1Y
1X
1W
1N
1M
1D
1(
1)
1/
1.
1-
1,
1+
1*
14
#895000
1#
1_
1<
1a
1T
1S
1'
1&
#900000
0!
0"
0\
0<
0[
1^
0G
0F
0E
0C
02
01
00
03
0c
0b
0a
0]
0K
0L
0Z
0Y
0X
0W
0T
0S
0N
0M
0D
0(
0)
0/
0.
0-
0,
0'
0&
0+
0*
04
#910000
0#
0_
1<
1`
0Q
0R
0$
0%
#915000
1#
1_
0<
0`
1Q
1R
1$
1%
#920000
1!
1"
1\
1<
1[
0^
1G
1F
1E
1C
12
11
10
13
1c
1b
1a
1]
1K
1L
1Z
1Y
1X
1W
1T
1S
1N
1M
1D
1(
1)
1/
1.
1-
1,
1'
1&
1+
1*
14
#930000
0#
0_
0<
0a
0T
0S
0'
0&
#935000
0!
0"
0\
1<
0[
1`
1^
0G
0F
0E
0C
02
01
00
03
0c
0b
0]
0Q
0R
0K
0L
0Z
0Y
0X
0W
0N
0M
0D
0$
0%
0(
0)
0/
0.
0-
0,
0+
0*
04
#940000
1#
1!
1"
1_
1\
0<
1[
0`
0^
1G
1F
1E
1C
12
11
10
13
1c
1b
1a
1]
1Q
1R
1K
1L
1Z
1Y
1X
1W
1T
1S
1N
1M
1D
1$
1%
1(
1)
1/
1.
1-
1,
1'
1&
1+
1*
14
#945000
0#
0!
0"
0_
0\
1<
0[
1`
1^
0G
0F
0E
0C
02
01
00
03
0c
0b
0a
0]
0Q
0R
0K
0L
0Z
0Y
0X
0W
0T
0S
0N
0M
0D
0$
0%
0(
0)
0/
0.
0-
0,
0'
0&
0+
0*
04
#950000
1#
1_
0<
0`
1Q
1R
1$
1%
#960000
1!
1"
1\
1<
1[
0^
1G
1F
1E
1C
12
11
10
13
1c
1b
1a
1]
1K
1L
1Z
1Y
1X
1W
1T
1S
1N
1M
1D
1(
1)
1/
1.
1-
1,
1'
1&
1+
1*
14
#965000
0#
0_
0<
0a
0T
0S
0'
0&
#970000
1#
1_
1<
1a
1T
1S
1'
1&
#975000
0#
0_
0<
0a
0T
0S
0'
0&
#980000
0!
0"
0\
1<
0[
1`
1^
0G
0F
0E
0C
02
01
00
03
0c
0b
0]
0Q
0R
0K
0L
0Z
0Y
0X
0W
0N
0M
0D
0$
0%
0(
0)
0/
0.
0-
0,
0+
0*
04
#985000
1#
1!
1"
1_
1\
0<
1[
0`
0^
1G
1F
1E
1C
12
11
10
13
1c
1b
1a
1]
1Q
1R
1K
1L
1Z
1Y
1X
1W
1T
1S
1N
1M
1D
1$
1%
1(
1)
1/
1.
1-
1,
1'
1&
1+
1*
14
#990000
0!
0"
0\
1<
0[
1^
0G
0F
0E
0C
02
01
00
03
0c
0b
0a
0]
0K
0L
0Z
0Y
0X
0W
0T
0S
0N
0M
0D
0(
0)
0/
0.
0-
0,
0'
0&
0+
0*
04
