relatorio2/simulation/qsim/relatorio2.msim.vcd
$comment
	File created using the following command:
		vcd file relatorio2.msim.vcd -direction
$end
$date
	Fri Sep 16 16:51:34 2022
$end
$version
	ModelSim Version 10.1d
$end
$timescale
	1ps
$end
$scope module relatorio2_vlg_vec_tst $end
$var reg 1 ! a $end
$var reg 1 " b $end
$var reg 1 # c $end
$var wire 1 $ s1 $end
$var wire 1 % s2 $end
$var wire 1 & sampler $end
$scope module i1 $end
$var wire 1 ' gnd $end
$var wire 1 ( vcc $end
$var wire 1 ) unknown $end
$var tri1 1 * devclrn $end
$var tri1 1 + devpor $end
$var tri1 1 , devoe $end
$var wire 1 - s1~output_o $end
$var wire 1 . s2~output_o $end
$var wire 1 / a~input_o $end
$var wire 1 0 b~input_o $end
$var wire 1 1 c~input_o $end
$var wire 1 2 inst14|out1~0_combout $end
$var wire 1 3 inst25|out1~0_combout $end
$upscope $end
$upscope $end
$enddefinitions $end
#0
$dumpvars
1!
1"
1#
1$
1%
x&
0'
1(
x)
1*
1+
1,
1-
1.
1/
10
11
12
13
$end
#5000
0!
0"
0#
0/
00
01
0&
03
02
0.
0-
0%
0$
#10000
1#
11
1&
13
1.
1%
#15000
1"
0#
10
01
0&
#20000
1#
11
1&
03
12
0.
1-
0%
1$
#25000
1!
0#
1/
01
0&
#35000
0"
1#
00
11
1&
#40000
0!
1"
0#
0/
10
01
0&
13
02
1.
0-
1%
0$
#45000
1!
0"
1/
00
1&
#50000
1#
0!
11
0/
0&
#55000
1!
1/
1&
03
12
0.
1-
0%
1$
#60000
1"
10
0&
13
1.
1%
#65000
0#
0"
01
00
1&
02
0-
0$
#70000
0!
1#
1"
0/
11
10
0&
03
12
0.
1-
0%
1$
#75000
1!
0"
1/
00
1&
#85000
0#
01
0&
13
02
1.
0-
1%
0$
#90000
1#
11
1&
03
12
0.
1-
0%
1$
#95000
0#
01
0&
13
02
1.
0-
1%
0$
#100000
1"
10
1&
03
12
0.
1-
0%
1$
#105000
1#
11
0&
13
1.
1%
#110000
0!
0"
0#
0/
00
01
1&
03
02
0.
0-
0%
0$
#120000
1!
1"
1/
10
0&
12
1-
1$
#125000
1#
0!
0"
11
0/
00
1&
13
02
1.
0-
1%
0$
#130000
1!
1/
0&
03
12
0.
1-
0%
1$
#135000
0#
1"
0!
01
10
0/
1&
13
02
1.
0-
1%
0$
#140000
1#
0"
11
00
0&
#145000
1!
0#
1/
01
1&
#150000
1"
0!
1#
10
0/
11
0&
03
12
0.
1-
0%
1$
#155000
0"
1!
0#
00
1/
01
1&
13
02
1.
0-
1%
0$
#160000
1"
1#
10
11
0&
12
1-
1$
#165000
0!
0"
0#
0/
00
01
1&
03
02
0.
0-
0%
0$
#170000
1"
10
0&
13
1.
1%
#180000
1#
0"
11
00
1&
#195000
1"
10
0&
03
12
0.
1-
0%
1$
#200000
1!
1/
1&
13
1.
1%
#210000
0#
0!
01
0/
0&
02
0-
0$
#215000
0"
00
1&
03
0.
0%
#225000
1#
1!
11
1/
0&
12
1-
1$
#230000
0#
01
1&
13
02
1.
0-
1%
0$
#240000
0!
0/
0&
03
0.
0%
#245000
1"
1#
10
11
1&
12
1-
1$
#250000
1!
0"
0#
1/
00
01
0&
13
02
1.
0-
1%
0$
#255000
1#
11
1&
03
12
0.
1-
0%
1$
#260000
1"
0#
10
01
0&
#265000
0!
0"
0/
00
1&
02
0-
0$
#270000
1!
1"
1/
10
0&
12
1-
1$
#280000
0"
00
1&
13
02
1.
0-
1%
0$
#285000
1#
0!
1"
11
0/
10
0&
03
12
0.
1-
0%
1$
#290000
0#
0"
01
00
1&
02
0-
0$
#300000
1!
1/
0&
13
1.
1%
#305000
1#
1"
0!
11
10
0/
1&
03
12
0.
1-
0%
1$
#310000
0#
0"
01
00
0&
02
0-
0$
#315000
1"
10
1&
13
1.
1%
#320000
1#
11
0&
03
12
0.
1-
0%
1$
#330000
1!
0"
1/
00
1&
#335000
0!
1"
0/
10
0&
#340000
0#
0"
01
00
1&
02
0-
0$
#345000
1!
1/
0&
13
1.
1%
#350000
1#
1"
0!
11
10
0/
1&
03
12
0.
1-
0%
1$
#360000
0#
0"
01
00
0&
02
0-
0$
#365000
1!
1#
1"
1/
11
10
1&
13
12
1.
1-
1%
1$
#370000
0!
0#
0/
01
0&
02
0-
0$
#375000
0"
1!
1#
00
1/
11
1&
03
12
0.
1-
0%
1$
#385000
1"
0#
10
01
0&
#390000
0!
0/
1&
13
02
1.
0-
1%
0$
#400000
1#
11
0&
03
12
0.
1-
0%
1$
#410000
1!
0#
1/
01
1&
#420000
0"
0!
00
0/
0&
02
0-
0$
#430000
1#
1"
11
10
1&
12
1-
1$
#435000
0"
00
0&
13
02
1.
0-
1%
0$
#440000
1!
0#
1/
01
1&
#445000
1"
1#
10
11
0&
12
1-
1$
#455000
0!
0"
0#
0/
00
01
1&
03
02
0.
0-
0%
0$
#460000
1!
1/
0&
13
1.
1%
#465000
1"
1#
0!
10
11
0/
1&
03
12
0.
1-
0%
1$
#470000
0"
1!
00
1/
0&
#475000
0!
0/
1&
13
02
1.
0-
1%
0$
#480000
1"
10
0&
03
12
0.
1-
0%
1$
#485000
0#
0"
01
00
1&
02
0-
0$
#490000
1!
1"
1/
10
0&
12
1-
1$
#495000
0!
0"
0/
00
1&
02
0-
0$
#500000
1#
1!
11
1/
0&
12
1-
1$
#505000
0#
01
1&
13
02
1.
0-
1%
0$
#510000
0!
0/
0&
03
0.
0%
#515000
1#
11
1&
13
1.
1%
#520000
1!
1/
0&
03
12
0.
1-
0%
1$
#525000
0#
0!
01
0/
1&
02
0-
0$
#530000
1#
11
0&
13
1.
1%
#535000
1"
10
1&
03
12
0.
1-
0%
1$
#540000
0#
0"
01
00
0&
02
0-
0$
#545000
1!
1/
1&
13
1.
1%
#550000
0!
0/
0&
03
0.
0%
#555000
1"
10
1&
13
1.
1%
#560000
1#
0"
11
00
0&
#565000
1!
1/
1&
03
12
0.
1-
0%
1$
#570000
0#
0!
01
0/
0&
02
0-
0$
#575000
1#
1!
11
1/
1&
12
1-
1$
#580000
1"
0#
10
01
0&
#585000
1#
11
1&
13
1.
1%
#590000
0!
0"
0/
00
0&
02
0-
0$
#595000
1!
1/
1&
03
12
0.
1-
0%
1$
#600000
0#
0!
01
0/
0&
02
0-
0$
#605000
1#
11
1&
13
1.
1%
#610000
1"
0#
10
01
0&
#615000
1!
0"
1#
1/
00
11
1&
03
12
0.
1-
0%
1$
#625000
1"
0#
10
01
0&
#635000
0"
00
1&
13
02
1.
0-
1%
0$
#645000
0!
1#
0/
11
0&
#650000
1"
1!
0#
10
1/
01
1&
03
12
0.
1-
0%
1$
#655000
0"
0!
00
0/
0&
02
0-
0$
#660000
1#
11
1&
13
1.
1%
#665000
1!
1/
0&
03
12
0.
1-
0%
1$
#670000
1"
0#
0!
10
01
0/
1&
13
02
1.
0-
1%
0$
#680000
1!
1/
0&
03
12
0.
1-
0%
1$
#685000
0"
1#
0!
00
11
0/
1&
13
02
1.
0-
1%
0$
#690000
1"
0#
10
01
0&
#695000
0"
1#
00
11
1&
#700000
1!
1"
1/
10
0&
12
1-
1$
#710000
0#
0"
01
00
1&
02
0-
0$
#715000
0!
0/
0&
03
0.
0%
#720000
1!
1/
1&
13
1.
1%
#725000
1#
1"
0!
11
10
0/
0&
03
12
0.
1-
0%
1$
#730000
0#
0"
01
00
1&
02
0-
0$
#735000
1#
1"
11
10
0&
12
1-
1$
#740000
1!
0#
0"
1/
01
00
1&
13
02
1.
0-
1%
0$
#745000
0!
0/
0&
03
0.
0%
#750000
1!
1/
1&
13
1.
1%
#755000
1#
11
0&
03
12
0.
1-
0%
1$
#760000
1"
0#
10
01
1&
#765000
0"
00
0&
13
02
1.
0-
1%
0$
#770000
1"
10
1&
03
12
0.
1-
0%
1$
#775000
1#
0"
11
00
0&
#780000
0#
1"
01
10
1&
#790000
1#
0"
11
00
0&
#795000
0#
01
1&
13
02
1.
0-
1%
0$
#800000
0!
1"
0/
10
0&
#805000
1#
11
1&
03
12
0.
1-
0%
1$
#810000
1!
1/
0&
13
1.
1%
#815000
0"
0#
00
01
1&
02
0-
0$
#820000
0!
1"
0/
10
0&
#825000
1!
1/
1&
03
12
0.
1-
0%
1$
#835000
0"
0!
00
0/
0&
02
0-
0$
#840000
1!
1/
1&
13
1.
1%
#845000
1"
10
0&
03
12
0.
1-
0%
1$
#850000
1#
0!
0"
11
0/
00
1&
13
02
1.
0-
1%
0$
#855000
0#
01
0&
03
0.
0%
#860000
1!
1/
1&
13
1.
1%
#865000
1"
1#
0!
10
11
0/
0&
03
12
0.
1-
0%
1$
#870000
0#
01
1&
13
02
1.
0-
1%
0$
#875000
1!
1#
1/
11
0&
12
1-
1$
#880000
0!
0/
1&
03
0.
0%
#885000
0#
01
0&
13
02
1.
0-
1%
0$
#890000
0"
00
1&
03
0.
0%
#900000
1!
1/
0&
13
1.
1%
#905000
1#
1"
0!
11
10
0/
1&
03
12
0.
1-
0%
1$
#910000
0#
0"
1!
01
00
1/
0&
13
02
1.
0-
1%
0$
#915000
1#
1"
11
10
1&
12
1-
1$
#920000
0!
0/
0&
03
0.
0%
#925000
0#
1!
01
1/
1&
#930000
1#
0!
11
0/
0&
#935000
0"
00
1&
13
02
1.
0-
1%
0$
#940000
0#
01
0&
03
0.
0%
#945000
1#
11
1&
13
1.
1%
#950000
1!
0#
1/
01
0&
#955000
0!
0/
1&
03
0.
0%
#960000
1"
1!
10
1/
0&
12
1-
1$
#965000
0"
0!
00
0/
1&
02
0-
0$
#970000
1#
1"
11
10
0&
12
1-
1$
#975000
0"
00
1&
13
02
1.
0-
1%
0$
#980000
1!
1/
0&
03
12
0.
1-
0%
1$
#985000
1"
0!
10
0/
1&
#990000
0#
0"
01
00
0&
02
0-
0$
#995000
1!
1#
1/
11
1&
12
1-
1$
